{
	"name": "login",
	"udpPort" : 8015,
	"tcpPort" : 8016,
	"debug" : true,
	"WINDOW" : {
		"height": 1,
		"width": 1,
		 "x":1, "y":1,
		 "fullscreen":true,
		 "frame":false,
		"closable":false,
		"minimizable":false
	 }
}
