[
	{
		"id": "5918c559-d4f1-440d-abcf-099fc474e8a4",
		"name": "Jean-Luc Picard",
		"posts": [
			{
				"content": "There are some words I've known since...",
				"title": "Civil rights"
			}
		],
		"tv_show": "Star Trek TNG"
	},
	{
		"id": "a696fa17-3821-4b3b-98dd-3777f8dc8714",
		"name": "William Adama",
		"posts": [
			{
				"content": "The Cylon War is long over...",
				"title": "Decommissioning speech"
			},
			{
				"content": "Moments ago, this ship received word...",
				"title": "We are at war"
			},
			{
				"content": "The discoveries of the past few days...",
				"title": "The new Earth"
			}
		],
		"tv_show": "Battlestar Galactica"
	}
]