{
	"name": "thewall",
	"udpPort" : 8045,
	"tcpPort" : 8046,
	"debug" : false,
	"rethink": {"ip":"192.168.0.2", "port":28015},
	"WINDOW" : {"height": 860,"width": 460, "x":0, "y":0, "frame":false, "fullscreen":true}
}
