{
	"name": "lightclient",
	"udpPort" : 8088,
	"tcpPort" : 8089,
	"debug" : true,
	"rethink": {"ip":"192.168.0.2", "port":28015},
	"WINDOW" : {"height": 770,"width": 1370, "x":0, "y":0, "frame":false}
}