[
    {
        "filename": "1001_Mail_Marco_Alexander.txt",
        "name": "anderkassenbon",
        "targetname": "Marco Knochenwirt",
        "level": "TROLL",
        "tile": {
            "name": "MATTalexanderkassenbon",
            "endpos": {
                "x": 2,
                "y": 4
            },
            "match": [
                "MATTkassenbonknebel"
            ],
            "nodes": [
                {
                    "name": "a",
                    "text": "<b>Alexander</b>macht Buchhaltung im Center"
                },
                {
                    "name": "b",
                    "text": "Cornelius hat <key>Beleg</key>"
                }
            ],
            "level": "TROLL"
        }
    },
    {
        "filename": "kundenbeleg_sexytimes.docx",
        "name": "MATTkassenbonknebel",
        "targetname": "Cornelius Werner",
        "level": "TROLL",
        "tile": {
            "name": "MATTkassenbonknebel",
            "endpos": {
                "x": 3,
                "y": 5
            },
            "match": [
                "MATTalexanderkassenbon",
                "MATTknebeluebercrowd"
            ],
            "nodes": [
                {
                    "name": "a",
                    "text": "<key>Beleg</key> aus einem Sex-Shop"
                },
                {
                    "name": "b",
                    "text": "Kassenbon über 5 <key>Knebelbälle</key>"
                }
            ],
            "level": "TROLL"
        }
    },
    {
        "filename": "1008_Versandplanung.xls",
        "name": "MATTknebeluebercrowd",
        "targetname": "Denise Schicker",
        "level": "TROLL",
        "tile": {
            "name": "MATTknebeluebercrowd",
            "endpos": {
                "x": 5,
                "y": 5
            },
            "match": [
                "MATTkassenbonknebel",
                "MATTuebercrowdanrufe"
            ],
            "nodes": [
                {
                    "name": "a",
                    "text": "5 <key>Knebelbälle</key> wurden versendet"
                },
                {
                    "name": "b",
                    "text": "<key>übercrowd</key> gehört zu den Empfängern"
                }
            ],
            "level": "TROLL"
        }
    },
    {
        "filename": "MK_uebercrowd.xls",
        "name": "MATTuebercrowdanrufe",
        "targetname": "Melanie Niedermeyer",
        "level": "TROLL",
        "tile": {
            "name": "MATTuebercrowdanrufe",
            "endpos": {
                "x": 6,
                "y": 4
            },
            "match": [
                "MATTknebeluebercrowd",
                "MATTanrufealexander"
            ],
            "nodes": [
                {
                    "name": "a",
                    "text": "Drohungen gegen <key>bercrowd</key> kommen von Bewegung"
                },
                {
                    "name": "b",
                    "text": "Pakete und <key>Anrufe</key> werden koordiniert"
                }
            ],
            "level": "TROLL"
        }
    },
    {
        "filename": "Manuskript73.docx",
        "name": "MATTanrufealexander",
        "targetname": "Arne Brauer",
        "level": "TROLL",
        "tile": {
            "name": "MATTanrufealexander",
            "endpos": {
                "x": 8,
                "y": 4
            },
            "match": [
                "MATTuebercrowdanrufe"
            ],
            "nodes": [
                {
                    "name": "a",
                    "text": "<key>Anrufe</key> sind mit Führung abgestimmt"
                },
                {
                    "name": "b",
                    "text": "<b>Alexander</b>lektoriert Drohanruf-Manuskripte "
                }
            ],
            "level": "TROLL"
        }
    },
    {
        "filename": "0902_Mail_Marco_Jenny.txt",
        "name": "MATTbewegungjenny",
        "targetname": "Marco Knochenwirt",
        "level": "FIN",
        "tile": {
            "name": "MATTbewegungjenny",
            "endpos": {
                "x": 2,
                "y": 4
            },
            "match": [
                "MATTjennyzahlung"
            ],
            "nodes": [
                {
                    "name": "a",
                    "text": "Die Bewegung unterstützt <b>Bewaffnung</b>"
                },
                {
                    "name": "b",
                    "text": "<key>Jenny</key> hat persönlich überwiesen"
                }
            ],
            "level": "FIN"
        }
    },
    {
        "filename": "0915_Mail_Jenny_Melanie.txt",
        "name": "MATTjennyzahlung",
        "targetname": "Melanie Niedermeyer",
        "level": "FIN",
        "tile": {
            "name": "MATTjennyzahlung",
            "endpos": {
                "x": 3,
                "y": 5
            },
            "match": [
                "MATTbewegungjenny",
                "MATTzahlungabhebung"
            ],
            "nodes": [
                {
                    "name": "a",
                    "text": "<key>Jenny</key> hat persönlich überwiesen"
                },
                {
                    "name": "b",
                    "text": "<key>Marco</key> hat Geld von der Bewegung erhalten"
                }
            ],
            "level": "FIN"
        }
    },
    {
        "filename": "0905_Kontoauszug.docx",
        "name": "MATTzahlungabhebung",
        "targetname": "Marco Knochenwirt",
        "level": "FIN",
        "tile": {
            "name": "MATTzahlungabhebung",
            "endpos": {
                "x": 5,
                "y": 5
            },
            "match": [
                "MATTjennyzahlung",
                "MATTabhebungsumme"
            ],
            "nodes": [
                {
                    "name": "a",
                    "text": "<key>Marco</key> hat Geld von der Bewegung erhalten"
                },
                {
                    "name": "b",
                    "text": "Marco hat das Geld <key>abgehoben</key>"
                }
            ],
            "level": "FIN"
        }
    },
    {
        "filename": "0906_Beglaubigung.docx",
        "name": "MATTabhebungsumme",
        "targetname": "Denise Schicker",
        "level": "FIN",
        "tile": {
            "name": "MATTabhebungsumme",
            "endpos": {
                "x": 6,
                "y": 4
            },
            "match": [
                "MATTzahlungabhebung",
                "MATTsummezwoelf"
            ],
            "nodes": [
                {
                    "name": "a",
                    "text": "Marco hat Geld <key>abgehoben</key>"
                },
                {
                    "name": "b",
                    "text": "Cornelius hat <key>5.890 €</key> in bar erhalten"
                }
            ],
            "level": "FIN"
        }
    },
    {
        "filename": "0901_Treibel_Rechnung.docx",
        "name": "MATTsummezwoelf",
        "targetname": "Cornelius Werner",
        "level": "FIN",
        "tile": {
            "name": "MATTsummezwoelf",
            "endpos": {
                "x": 8,
                "y": 4
            },
            "match": [
                "MATTabhebungsumme",
                "MATTzwoelfbestellung"
            ],
            "nodes": [
                {
                    "name": "a",
                    "text": "Waffenrechnung über <key>5.890 €</key>"
                },
                {
                    "name": "b",
                    "text": "<key>12 Waffen</key> bestellt"
                }
            ],
            "level": "FIN"
        }
    },
    {
        "filename": "KatalogTreibel.docx",
        "name": "MATTzwoelfbestellung",
        "targetname": "Denise Schicker",
        "level": "FIN",
        "tile": {
            "name": "MATTzwoelfbestellung",
            "endpos": {
                "x": 9,
                "y": 3
            },
            "match": [
                "MATTsummezwoelf",
                "MATTbestellungtag"
            ],
            "nodes": [
                {
                    "name": "a",
                    "text": "<key>12 Waffen</key> bestellt"
                },
                {
                    "name": "b",
                    "text": "Denise hat <key>Bestellungen</key> aufgenommen"
                }
            ],
            "level": "FIN"
        }
    },
    {
        "filename": "0802_Mail_Arne_Denise.txt",
        "name": "MATTbestellungtag",
        "targetname": "Arne Brauer",
        "level": "FIN",
        "tile": {
            "name": "MATTbestellungtag",
            "endpos": {
                "x": 10,
                "y": 2
            },
            "match": [
                "MATTzwoelfbestellung",
                "MATTtagbewegung"
            ],
            "nodes": [
                {
                    "name": "a",
                    "text": "Denise hat <key>Bestellungen</key> aufgenommen"
                },
                {
                    "name": "b",
                    "text": "Bestellung ist für <key>Tag X</key>"
                }
            ],
            "level": "FIN"
        }
    },
    {
        "filename": "0812_Chat_Arne_Melanie.docx",
        "name": "MATTtagbewegung",
        "targetname": "Melanie Niedermeyer",
        "level": "FIN",
        "tile": {
            "name": "MATTtagbewegung",
            "endpos": {
                "x": 12,
                "y": 2
            },
            "match": [
                "MATTbestellungtag"
            ],
            "nodes": [
                {
                    "name": "a",
                    "text": "Bestellung ist für <key>Tag X</key>"
                },
                {
                    "name": "b",
                    "text": "Die Bewegung unterstützt <b>Bewaffnung</b>"
                }
            ],
            "level": "FIN"
        }
    },
    {
        "filename": "Liste_v.docx",
        "name": "MATTgegnermigranten",
        "targetname": "Marco Knochenwirt",
        "level": "LISTE",
        "tile": {
            "name": "MATTgegnermigranten",
            "endpos": {
                "x": 2,
                "y": 4
            },
            "match": [
                "MATTmigrantenjournalisten"
            ],
            "nodes": [
                {
                    "name": "a",
                    "text": "Gegner sollen liquidiert werden"
                },
                {
                    "name": "b",
                    "text": "<key>Migranten</key> sollen liquidiert werden"
                }
            ],
            "level": "LISTE"
        }
    },
    {
        "filename": "Liste_w.docx",
        "name": "MATTmigrantenjournalisten",
        "targetname": "Cornelius Werner",
        "level": "LISTE",
        "tile": {
            "name": "MATTmigrantenjournalisten",
            "endpos": {
                "x": 3,
                "y": 5
            },
            "match": [
                "MATTgegnermigranten",
                "MATTjournalistenkinderlos"
            ],
            "nodes": [
                {
                    "name": "a",
                    "text": "<key>Migranten</key> sollen liquidiert werden"
                },
                {
                    "name": "b",
                    "text": "<key>Journalisten</key> sollen liquidiert werden"
                }
            ],
            "level": "LISTE"
        }
    },
    {
        "filename": "Liste_x.docx",
        "name": "MATTjournalistenkinderlos",
        "targetname": "Denise Schicker",
        "level": "LISTE",
        "tile": {
            "name": "MATTjournalistenkinderlos",
            "endpos": {
                "x": 5,
                "y": 5
            },
            "match": [
                "MATTmigrantenjournalisten",
                "MATTkinderlosbehindert"
            ],
            "nodes": [
                {
                    "name": "a",
                    "text": "<key>Journalisten</key> sollen liquidiert werden"
                },
                {
                    "name": "b",
                    "text": "<key>Kinderlose Nicht-Heteros</key> sollen liquidiert werden"
                }
            ],
            "level": "LISTE"
        }
    },
    {
        "filename": "Liste_y.docx",
        "name": "MATTkinderlosbehindert",
        "targetname": "Melanie Niedermeyer",
        "level": "LISTE",
        "tile": {
            "name": "MATTkinderlosbehindert",
            "endpos": {
                "x": 6,
                "y": 4
            },
            "match": [
                "MATTjournalistenkinderlos",
                "MATTbehindertgegner"
            ],
            "nodes": [
                {
                    "name": "a",
                    "text": "<key>Kinderlose Nicht-Heteros</key> sollen liquidiert werden"
                },
                {
                    "name": "b",
                    "text": "<key>Geistig Behinderte</key> sollen liquidiert werden"
                }
            ],
            "level": "LISTE"
        }
    },
    {
        "filename": "Liste_z.docx",
        "name": "MATTbehindertgegner",
        "targetname": "Arne Brauer",
        "level": "LISTE",
        "tile": {
            "name": "MATTbehindertgegner",
            "endpos": {
                "x": 8,
                "y": 4
            },
            "match": [
                "MATTkinderlosbehindert"
            ],
            "nodes": [
                {
                    "name": "a",
                    "text": "<key>Geistig Behinderte</key> sollen liquidiert werden"
                },
                {
                    "name": "b",
                    "text": "Gegner sollen liquidiert werden"
                }
            ],
            "level": "LISTE"
        }
    },
    {
        "filename": "1001_Mail_Charlotte_Alexander.txt",
        "name": "TOMalexanderkassenbon",
        "targetname": "Charlotte Specht",
        "level": "TROLL",
        "tile": {
            "name": "TOMalexanderkassenbon",
            "endpos": {
                "x": 2,
                "y": 4
            },
            "match": [
                "TOMkassenbonknebel"
            ],
            "nodes": [
                {
                    "name": "a",
                    "text": "<b>Alexander</b>macht Buchhaltung im Center"
                },
                {
                    "name": "b",
                    "text": "Julian hat <key>Beleg</key>"
                }
            ],
            "level": "TROLL"
        }
    },
    {
        "filename": "kundenbeleg_sexytimes.docx",
        "name": "TOMkassenbonknebel",
        "targetname": "Julian Birk",
        "level": "TROLL",
        "tile": {
            "name": "TOMkassenbonknebel",
            "endpos": {
                "x": 3,
                "y": 5
            },
            "match": [
                "TOMalexanderkassenbon",
                "TOMknebeluebercrowd"
            ],
            "nodes": [
                {
                    "name": "a",
                    "text": "<key>Beleg</key> aus einem Sex-Shop"
                },
                {
                    "name": "b",
                    "text": "Kassenbon über 5 <key>Knebelbälle</key>"
                }
            ],
            "level": "TROLL"
        }
    },
    {
        "filename": "1009_Versandplanung.xls",
        "name": "TOMknebeluebercrowd",
        "targetname": "Philipp Koslowski",
        "level": "TROLL",
        "tile": {
            "name": "TOMknebeluebercrowd",
            "endpos": {
                "x": 5,
                "y": 5
            },
            "match": [
                "TOMkassenbonknebel",
                "TOMuebercrowdanrufe"
            ],
            "nodes": [
                {
                    "name": "a",
                    "text": "5 <key>Knebelbälle</key> wurden versendet"
                },
                {
                    "name": "b",
                    "text": "<key>übercrowd</key> gehört zu den Empfängern"
                }
            ],
            "level": "TROLL"
        }
    },
    {
        "filename": "MK_uebercrowd.xls",
        "name": "TOMuebercrowdanrufe",
        "targetname": "Annemarie Schlitzer",
        "level": "TROLL",
        "tile": {
            "name": "TOMuebercrowdanrufe",
            "endpos": {
                "x": 6,
                "y": 4
            },
            "match": [
                "TOMknebeluebercrowd",
                "TOManrufealexander"
            ],
            "nodes": [
                {
                    "name": "a",
                    "text": "Drohungen gegen <key>bercrowd</key> kommen von Bewegung"
                },
                {
                    "name": "b",
                    "text": "Pakete und <key>Anrufe</key> werden koordiniert"
                }
            ],
            "level": "TROLL"
        }
    },
    {
        "filename": "Manuskript73.docx",
        "name": "TOManrufealexander",
        "targetname": "Natascha Markwart",
        "level": "TROLL",
        "tile": {
            "name": "TOManrufealexander",
            "endpos": {
                "x": 8,
                "y": 4
            },
            "match": [
                "TOMuebercrowdanrufe"
            ],
            "nodes": [
                {
                    "name": "a",
                    "text": "<key>Anrufe</key> sind mit Führung abgestimmt"
                },
                {
                    "name": "b",
                    "text": "<b>Alexander</b>lektoriert Drohanruf-Manuskripte "
                }
            ],
            "level": "TROLL"
        }
    },
    {
        "filename": "0902_Mail_Charlotte_Jenny.txt",
        "name": "TOMbewegungjenny",
        "targetname": "Charlotte Specht",
        "level": "FIN",
        "tile": {
            "name": "TOMbewegungjenny",
            "endpos": {
                "x": 2,
                "y": 4
            },
            "match": [
                "TOMjennyzahlung"
            ],
            "nodes": [
                {
                    "name": "a",
                    "text": "Die Bewegung unterstützt <b>Bewaffnung</b>"
                },
                {
                    "name": "b",
                    "text": "<key>Jenny</key> hat persönlich überwiesen"
                }
            ],
            "level": "FIN"
        }
    },
    {
        "filename": "0915_Mail_Jenny_Annemarie.txt",
        "name": "TOMjennyzahlung",
        "targetname": "Annemarie Schlitzer",
        "level": "FIN",
        "tile": {
            "name": "TOMjennyzahlung",
            "endpos": {
                "x": 3,
                "y": 5
            },
            "match": [
                "TOMbewegungjenny",
                "TOMzahlungabhebung"
            ],
            "nodes": [
                {
                    "name": "a",
                    "text": "<key>Jenny</key> hat persönlich überwiesen"
                },
                {
                    "name": "b",
                    "text": "<key>Charlotte</key> hat Geld von der Bewegung erhalten"
                }
            ],
            "level": "FIN"
        }
    },
    {
        "filename": "0906_Kontoauszug.docx",
        "name": "TOMzahlungabhebung",
        "targetname": "Charlotte Specht",
        "level": "FIN",
        "tile": {
            "name": "TOMzahlungabhebung",
            "endpos": {
                "x": 5,
                "y": 5
            },
            "match": [
                "TOMjennyzahlung",
                "TOMabhebungsumme"
            ],
            "nodes": [
                {
                    "name": "a",
                    "text": "<key>Charlotte</key> hat Geld von der Bewegung erhalten"
                },
                {
                    "name": "b",
                    "text": "Charlotte hat das Geld <key>abgehoben</key>"
                }
            ],
            "level": "FIN"
        }
    },
    {
        "filename": "0907_Beglaubigung.docx",
        "name": "TOMabhebungsumme",
        "targetname": "Philipp Koslowski",
        "level": "FIN",
        "tile": {
            "name": "TOMabhebungsumme",
            "endpos": {
                "x": 6,
                "y": 4
            },
            "match": [
                "TOMzahlungabhebung",
                "TOMsummezwoelf"
            ],
            "nodes": [
                {
                    "name": "a",
                    "text": "Charlotte hat Geld <key>abgehoben</key>"
                },
                {
                    "name": "b",
                    "text": "Julian hat <key>5.890 €</key> in bar erhalten"
                }
            ],
            "level": "FIN"
        }
    },
    {
        "filename": "0902_Treibel_Rechnung.docx",
        "name": "TOMsummezwoelf",
        "targetname": "Julian Birk",
        "level": "FIN",
        "tile": {
            "name": "TOMsummezwoelf",
            "endpos": {
                "x": 8,
                "y": 4
            },
            "match": [
                "TOMabhebungsumme",
                "TOMzwoelfbestellung"
            ],
            "nodes": [
                {
                    "name": "a",
                    "text": "Waffenrechnung über <key>5.890 €</key>"
                },
                {
                    "name": "b",
                    "text": "<key>12 Waffen</key> bestellt"
                }
            ],
            "level": "FIN"
        }
    },
    {
        "filename": "KatalogTreibel.docx",
        "name": "TOMzwoelfbestellung",
        "targetname": "Philipp Koslowski",
        "level": "FIN",
        "tile": {
            "name": "TOMzwoelfbestellung",
            "endpos": {
                "x": 9,
                "y": 3
            },
            "match": [
                "TOMsummezwoelf",
                "TOMbestellungtag"
            ],
            "nodes": [
                {
                    "name": "a",
                    "text": "<key>12 Waffen</key> bestellt"
                },
                {
                    "name": "b",
                    "text": "Philipp hat <key>Bestellungen</key> aufgenommen"
                }
            ],
            "level": "FIN"
        }
    },
    {
        "filename": "0802_Mail_Natascha_Philipp.txt",
        "name": "TOMbestellungtag",
        "targetname": "Natascha Markwart",
        "level": "FIN",
        "tile": {
            "name": "TOMbestellungtag",
            "endpos": {
                "x": 10,
                "y": 2
            },
            "match": [
                "TOMzwoelfbestellung",
                "TOMtagbewegung"
            ],
            "nodes": [
                {
                    "name": "a",
                    "text": "Philipp hat <key>Bestellungen</key> aufgenommen"
                },
                {
                    "name": "b",
                    "text": "Bestellung ist für <key>Tag X</key>"
                }
            ],
            "level": "FIN"
        }
    },
    {
        "filename": "0812_Chat_Natascha_Annemarie.docx",
        "name": "TOMtagbewegung",
        "targetname": "Annemarie Schlitzer",
        "level": "FIN",
        "tile": {
            "name": "TOMtagbewegung",
            "endpos": {
                "x": 12,
                "y": 2
            },
            "match": [
                "TOMbestellungtag"
            ],
            "nodes": [
                {
                    "name": "a",
                    "text": "Bestellung ist für <key>Tag X</key>"
                },
                {
                    "name": "b",
                    "text": "Die Bewegung unterstützt <b>Bewaffnung</b>"
                }
            ],
            "level": "FIN"
        }
    },
    {
        "filename": "Liste_v.docx",
        "name": "TOMgegnermigranten",
        "targetname": "Charlotte Specht",
        "level": "LISTE",
        "tile": {
            "name": "TOMgegnermigranten",
            "endpos": {
                "x": 2,
                "y": 4
            },
            "match": [
                "TOMmigrantenjournalisten"
            ],
            "nodes": [
                {
                    "name": "a",
                    "text": "Gegner sollen liquidiert werden"
                },
                {
                    "name": "b",
                    "text": "<key>Migranten</key> sollen liquidiert werden"
                }
            ],
            "level": "LISTE"
        }
    },
    {
        "filename": "Liste_w.docx",
        "name": "TOMmigrantenjournalisten",
        "targetname": "Julian Birk",
        "level": "LISTE",
        "tile": {
            "name": "TOMmigrantenjournalisten",
            "endpos": {
                "x": 3,
                "y": 5
            },
            "match": [
                "TOMgegnermigranten",
                "TOMjournalistenkinderlos"
            ],
            "nodes": [
                {
                    "name": "a",
                    "text": "<key>Migranten</key> sollen liquidiert werden"
                },
                {
                    "name": "b",
                    "text": "<key>Journalisten</key> sollen liquidiert werden"
                }
            ],
            "level": "LISTE"
        }
    },
    {
        "filename": "Liste_x.docx",
        "name": "TOMjournalistenkinderlos",
        "targetname": "Philipp Koslowski",
        "level": "LISTE",
        "tile": {
            "name": "TOMjournalistenkinderlos",
            "endpos": {
                "x": 5,
                "y": 5
            },
            "match": [
                "TOMmigrantenjournalisten",
                "TOMkinderlosbehindert"
            ],
            "nodes": [
                {
                    "name": "a",
                    "text": "<key>Journalisten</key> sollen liquidiert werden"
                },
                {
                    "name": "b",
                    "text": "<key>Kinderlose Nicht-Heteros</key> sollen liquidiert werden"
                }
            ],
            "level": "LISTE"
        }
    },
    {
        "filename": "Liste_y.docx",
        "name": "TOMkinderlosbehindert",
        "targetname": "Annemarie Schlitzer",
        "level": "LISTE",
        "tile": {
            "name": "TOMkinderlosbehindert",
            "endpos": {
                "x": 6,
                "y": 4
            },
            "match": [
                "TOMjournalistenkinderlos",
                "TOMbehindertgegner"
            ],
            "nodes": [
                {
                    "name": "a",
                    "text": "<key>Kinderlose Nicht-Heteros</key> sollen liquidiert werden"
                },
                {
                    "name": "b",
                    "text": "<key>Geistig Behinderte</key> sollen liquidiert werden"
                }
            ],
            "level": "LISTE"
        }
    },
    {
        "filename": "Liste_z.docx",
        "name": "TOMbehindertgegner",
        "targetname": "Natascha Markwart",
        "level": "LISTE",
        "tile": {
            "name": "TOMbehindertgegner",
            "endpos": {
                "x": 8,
                "y": 4
            },
            "match": [
                "TOMkinderlosbehindert"
            ],
            "nodes": [
                {
                    "name": "a",
                    "text": "<key>Geistig Behinderte</key> sollen liquidiert werden"
                },
                {
                    "name": "b",
                    "text": "Gegner sollen liquidiert werden"
                }
            ],
            "level": "LISTE"
        }
    },
    {
        "filename": "1001_Mail_Simon_Alexander.txt",
        "name": "PAULIEalexanderkassenbon",
        "targetname": "Simon Schildner",
        "level": "TROLL",
        "tile": {
            "name": "PAULIEalexanderkassenbon",
            "endpos": {
                "x": 2,
                "y": 4
            },
            "match": [
                "PAULIEkassenbonknebel"
            ],
            "nodes": [
                {
                    "name": "a",
                    "text": "<b>Alexander</b>macht Buchhaltung im Center"
                },
                {
                    "name": "b",
                    "text": "Elena hat <key>Beleg</key>"
                }
            ],
            "level": "TROLL"
        }
    },
    {
        "filename": "kundenbeleg_sexytimes.docx",
        "name": "PAULIEkassenbonknebel",
        "targetname": "Elena Manfred",
        "level": "TROLL",
        "tile": {
            "name": "PAULIEkassenbonknebel",
            "endpos": {
                "x": 3,
                "y": 5
            },
            "match": [
                "PAULIEalexanderkassenbon",
                "PAULIEknebeluebercrowd"
            ],
            "nodes": [
                {
                    "name": "a",
                    "text": "<key>Beleg</key> aus einem Sex-Shop"
                },
                {
                    "name": "b",
                    "text": "Kassenbon über 5 <key>Knebelbälle</key>"
                }
            ],
            "level": "TROLL"
        }
    },
    {
        "filename": "1010_Versandplanung.xls",
        "name": "PAULIEknebeluebercrowd",
        "targetname": "Conny Mühsal",
        "level": "TROLL",
        "tile": {
            "name": "PAULIEknebeluebercrowd",
            "endpos": {
                "x": 5,
                "y": 5
            },
            "match": [
                "PAULIEkassenbonknebel",
                "PAULIEuebercrowdanrufe"
            ],
            "nodes": [
                {
                    "name": "a",
                    "text": "5 <key>Knebelbälle</key> wurden versendet"
                },
                {
                    "name": "b",
                    "text": "<key>übercrowd</key> gehört zu den Empfängern"
                }
            ],
            "level": "TROLL"
        }
    },
    {
        "filename": "MK_uebercrowd.xls",
        "name": "PAULIEuebercrowdanrufe",
        "targetname": "Martin Gutfried",
        "level": "TROLL",
        "tile": {
            "name": "PAULIEuebercrowdanrufe",
            "endpos": {
                "x": 6,
                "y": 4
            },
            "match": [
                "PAULIEknebeluebercrowd",
                "PAULIEanrufealexander"
            ],
            "nodes": [
                {
                    "name": "a",
                    "text": "Drohungen gegen <key>bercrowd</key> kommen von Bewegung"
                },
                {
                    "name": "b",
                    "text": "Pakete und <key>Anrufe</key> werden koordiniert"
                }
            ],
            "level": "TROLL"
        }
    },
    {
        "filename": "Manuskript73.docx",
        "name": "PAULIEanrufealexander",
        "targetname": "Thilo Sand",
        "level": "TROLL",
        "tile": {
            "name": "PAULIEanrufealexander",
            "endpos": {
                "x": 8,
                "y": 4
            },
            "match": [
                "PAULIEuebercrowdanrufe"
            ],
            "nodes": [
                {
                    "name": "a",
                    "text": "<key>Anrufe</key> sind mit Führung abgestimmt"
                },
                {
                    "name": "b",
                    "text": "<b>Alexander</b>lektoriert Drohanruf-Manuskripte "
                }
            ],
            "level": "TROLL"
        }
    },
    {
        "filename": "0902_Mail_Simon_Jenny.txt",
        "name": "PAULIEbewegungjenny",
        "targetname": "Simon Schildner",
        "level": "FIN",
        "tile": {
            "name": "PAULIEbewegungjenny",
            "endpos": {
                "x": 2,
                "y": 4
            },
            "match": [
                "PAULIEjennyzahlung"
            ],
            "nodes": [
                {
                    "name": "a",
                    "text": "Die Bewegung unterstützt <b>Bewaffnung</b>"
                },
                {
                    "name": "b",
                    "text": "<key>Jenny</key> hat persönlich überwiesen"
                }
            ],
            "level": "FIN"
        }
    },
    {
        "filename": "0915_Mail_Jenny_Martin.txt",
        "name": "PAULIEjennyzahlung",
        "targetname": "Martin Gutfried",
        "level": "FIN",
        "tile": {
            "name": "PAULIEjennyzahlung",
            "endpos": {
                "x": 3,
                "y": 5
            },
            "match": [
                "PAULIEbewegungjenny",
                "PAULIEzahlungabhebung"
            ],
            "nodes": [
                {
                    "name": "a",
                    "text": "<key>Jenny</key> hat persönlich überwiesen"
                },
                {
                    "name": "b",
                    "text": "<key>Simon</key> hat Geld von der Bewegung erhalten"
                }
            ],
            "level": "FIN"
        }
    },
    {
        "filename": "0907_Kontoauszug.docx",
        "name": "PAULIEzahlungabhebung",
        "targetname": "Simon Schildner",
        "level": "FIN",
        "tile": {
            "name": "PAULIEzahlungabhebung",
            "endpos": {
                "x": 5,
                "y": 5
            },
            "match": [
                "PAULIEjennyzahlung",
                "PAULIEabhebungsumme"
            ],
            "nodes": [
                {
                    "name": "a",
                    "text": "<key>Simon</key> hat Geld von der Bewegung erhalten"
                },
                {
                    "name": "b",
                    "text": "Simon hat das Geld <key>abgehoben</key>"
                }
            ],
            "level": "FIN"
        }
    },
    {
        "filename": "0908_Beglaubigung.docx",
        "name": "PAULIEabhebungsumme",
        "targetname": "Conny Mühsal",
        "level": "FIN",
        "tile": {
            "name": "PAULIEabhebungsumme",
            "endpos": {
                "x": 6,
                "y": 4
            },
            "match": [
                "PAULIEzahlungabhebung",
                "PAULIEsummezwoelf"
            ],
            "nodes": [
                {
                    "name": "a",
                    "text": "Simon hat Geld <key>abgehoben</key>"
                },
                {
                    "name": "b",
                    "text": "Elena hat <key>5.890 €</key> in bar erhalten"
                }
            ],
            "level": "FIN"
        }
    },
    {
        "filename": "0903_Treibel_Rechnung.docx",
        "name": "PAULIEsummezwoelf",
        "targetname": "Elena Manfred",
        "level": "FIN",
        "tile": {
            "name": "PAULIEsummezwoelf",
            "endpos": {
                "x": 8,
                "y": 4
            },
            "match": [
                "PAULIEabhebungsumme",
                "PAULIEzwoelfbestellung"
            ],
            "nodes": [
                {
                    "name": "a",
                    "text": "Waffenrechnung über <key>5.890 €</key>"
                },
                {
                    "name": "b",
                    "text": "<key>12 Waffen</key> bestellt"
                }
            ],
            "level": "FIN"
        }
    },
    {
        "filename": "KatalogTreibel.docx",
        "name": "PAULIEzwoelfbestellung",
        "targetname": "Conny Mühsal",
        "level": "FIN",
        "tile": {
            "name": "PAULIEzwoelfbestellung",
            "endpos": {
                "x": 9,
                "y": 3
            },
            "match": [
                "PAULIEsummezwoelf",
                "PAULIEbestellungtag"
            ],
            "nodes": [
                {
                    "name": "a",
                    "text": "<key>12 Waffen</key> bestellt"
                },
                {
                    "name": "b",
                    "text": "Conny hat <key>Bestellungen</key> aufgenommen"
                }
            ],
            "level": "FIN"
        }
    },
    {
        "filename": "0802_Mail_Thilo_Conny.txt",
        "name": "PAULIEbestellungtag",
        "targetname": "Thilo Sand",
        "level": "FIN",
        "tile": {
            "name": "PAULIEbestellungtag",
            "endpos": {
                "x": 10,
                "y": 2
            },
            "match": [
                "PAULIEzwoelfbestellung",
                "PAULIEtagbewegung"
            ],
            "nodes": [
                {
                    "name": "a",
                    "text": "Conny hat <key>Bestellungen</key> aufgenommen"
                },
                {
                    "name": "b",
                    "text": "Bestellung ist für <key>Tag X</key>"
                }
            ],
            "level": "FIN"
        }
    },
    {
        "filename": "0812_Chat_Thilo_Martin.docx",
        "name": "PAULIEtagbewegung",
        "targetname": "Martin Gutfried",
        "level": "FIN",
        "tile": {
            "name": "PAULIEtagbewegung",
            "endpos": {
                "x": 12,
                "y": 2
            },
            "match": [
                "PAULIEbestellungtag"
            ],
            "nodes": [
                {
                    "name": "a",
                    "text": "Bestellung ist für <key>Tag X</key>"
                },
                {
                    "name": "b",
                    "text": "Die Bewegung unterstützt <b>Bewaffnung</b>"
                }
            ],
            "level": "FIN"
        }
    },
    {
        "filename": "Liste_v.docx",
        "name": "PAULIEgegnermigranten",
        "targetname": "Simon Schildner",
        "level": "LISTE",
        "tile": {
            "name": "PAULIEgegnermigranten",
            "endpos": {
                "x": 2,
                "y": 4
            },
            "match": [
                "PAULIEmigrantenjournalisten"
            ],
            "nodes": [
                {
                    "name": "a",
                    "text": "Gegner sollen liquidiert werden"
                },
                {
                    "name": "b",
                    "text": "<key>Migranten</key> sollen liquidiert werden"
                }
            ],
            "level": "LISTE"
        }
    },
    {
        "filename": "Liste_w.docx",
        "name": "PAULIEmigrantenjournalisten",
        "targetname": "Elena Manfred",
        "level": "LISTE",
        "tile": {
            "name": "PAULIEmigrantenjournalisten",
            "endpos": {
                "x": 3,
                "y": 5
            },
            "match": [
                "PAULIEgegnermigranten",
                "PAULIEjournalistenkinderlos"
            ],
            "nodes": [
                {
                    "name": "a",
                    "text": "<key>Migranten</key> sollen liquidiert werden"
                },
                {
                    "name": "b",
                    "text": "<key>Journalisten</key> sollen liquidiert werden"
                }
            ],
            "level": "LISTE"
        }
    },
    {
        "filename": "Liste_x.docx",
        "name": "PAULIEjournalistenkinderlos",
        "targetname": "Conny Mühsal",
        "level": "LISTE",
        "tile": {
            "name": "PAULIEjournalistenkinderlos",
            "endpos": {
                "x": 5,
                "y": 5
            },
            "match": [
                "PAULIEmigrantenjournalisten",
                "PAULIEkinderlosbehindert"
            ],
            "nodes": [
                {
                    "name": "a",
                    "text": "<key>Journalisten</key> sollen liquidiert werden"
                },
                {
                    "name": "b",
                    "text": "<key>Kinderlose Nicht-Heteros</key> sollen liquidiert werden"
                }
            ],
            "level": "LISTE"
        }
    },
    {
        "filename": "Liste_y.docx",
        "name": "PAULIEkinderlosbehindert",
        "targetname": "Martin Gutfried",
        "level": "LISTE",
        "tile": {
            "name": "PAULIEkinderlosbehindert",
            "endpos": {
                "x": 6,
                "y": 4
            },
            "match": [
                "PAULIEjournalistenkinderlos",
                "PAULIEbehindertgegner"
            ],
            "nodes": [
                {
                    "name": "a",
                    "text": "<key>Kinderlose Nicht-Heteros</key> sollen liquidiert werden"
                },
                {
                    "name": "b",
                    "text": "<key>Geistig Behinderte</key> sollen liquidiert werden"
                }
            ],
            "level": "LISTE"
        }
    },
    {
        "filename": "Liste_z.docx",
        "name": "PAULIEbehindertgegner",
        "targetname": "Thilo Sand",
        "level": "LISTE",
        "tile": {
            "name": "PAULIEbehindertgegner",
            "endpos": {
                "x": 8,
                "y": 4
            },
            "match": [
                "PAULIEkinderlosbehindert"
            ],
            "nodes": [
                {
                    "name": "a",
                    "text": "<key>Geistig Behinderte</key> sollen liquidiert werden"
                },
                {
                    "name": "b",
                    "text": "Gegner sollen liquidiert werden"
                }
            ],
            "level": "LISTE"
        }
    },
    {
        "filename": "0527_Annemarie_Charlotte.txt",
        "name": "trollfakeANN",
        "targetname": "Annemarie Schlitzer",
        "level": "TROLL",
        "tile": {
            "name": "trollfakeANN",
            "endpos": {
                "x": 1,
                "y": 1
            },
            "match": [],
            "nodes": [
                {
                    "name": "a",
                    "text": "Annemarie plant Leute <key>an die Wand</key> zu stellen"
                },
                {
                    "name": "b",
                    "text": "<key>hasserfüllt</key>e Email"
                }
            ],
            "level": "TROLL"
        }
    },
    {
        "filename": "0527_Annemarie_Charlotte.txt",
        "name": "finfakeANN",
        "targetname": "Annemarie Schlitzer",
        "level": "FIN",
        "tile": {
            "name": "finfakeANN",
            "endpos": {
                "x": 1,
                "y": 1
            },
            "match": [],
            "nodes": [
                {
                    "name": "a",
                    "text": "Annemarie plant Leute <key>an die Wand</key> zu stellen"
                },
                {
                    "name": "b",
                    "text": "<key>hasserfüllt</key>e Email"
                }
            ],
            "level": "FIN"
        }
    },
    {
        "filename": "0527_Annemarie_Charlotte.txt",
        "name": "listefakeANN",
        "targetname": "Annemarie Schlitzer",
        "level": "LISTE",
        "tile": {
            "name": "listefakeANN",
            "endpos": {
                "x": 1,
                "y": 1
            },
            "match": [],
            "nodes": [
                {
                    "name": "a",
                    "text": "Annemarie plant Leute <key>an die Wand</key> zu stellen"
                },
                {
                    "name": "b",
                    "text": "<key>hasserfüllt</key>e Email"
                }
            ],
            "level": "LISTE"
        }
    },
    {
        "filename": "0826_Kontoauszug.docx",
        "name": "trollfakeARNE",
        "targetname": "Arne Brauer",
        "level": "TROLL",
        "tile": {
            "name": "trollfakeARNE",
            "endpos": {
                "x": 1,
                "y": 1
            },
            "match": [],
            "nodes": [
                {
                    "name": "a",
                    "text": "Zahlung für <key>Terrorismus</key> erhalten"
                },
                {
                    "name": "b",
                    "text": "<key>Überweisung von Alexander</key> "
                }
            ],
            "level": "TROLL"
        }
    },
    {
        "filename": "0826_Kontoauszug.docx",
        "name": "finfakeARNE",
        "targetname": "Arne Brauer",
        "level": "FIN",
        "tile": {
            "name": "finfakeARNE",
            "endpos": {
                "x": 1,
                "y": 1
            },
            "match": [],
            "nodes": [
                {
                    "name": "a",
                    "text": "Zahlung für <key>Terrorismus</key> erhalten"
                },
                {
                    "name": "b",
                    "text": "<key>Überweisung von Alexander</key> "
                }
            ],
            "level": "FIN"
        }
    },
    {
        "filename": "0826_Kontoauszug.docx",
        "name": "listefakeARNE",
        "targetname": "Arne Brauer",
        "level": "LISTE",
        "tile": {
            "name": "listefakeARNE",
            "endpos": {
                "x": 1,
                "y": 1
            },
            "match": [],
            "nodes": [
                {
                    "name": "a",
                    "text": "Zahlung für <key>Terrorismus</key> erhalten"
                },
                {
                    "name": "b",
                    "text": "<key>Überweisung von Alexander</key> "
                }
            ],
            "level": "LISTE"
        }
    },
    {
        "filename": "0826_Kontoauszug.docx",
        "name": "trollfakeCHA",
        "targetname": "Charlotte Specht",
        "level": "TROLL",
        "tile": {
            "name": "trollfakeCHA",
            "endpos": {
                "x": 1,
                "y": 1
            },
            "match": [],
            "nodes": [
                {
                    "name": "a",
                    "text": "<key>Sintner</key> dealt mit Drogen"
                },
                {
                    "name": "b",
                    "text": "<key> Mitglieder der Bewegung nehmen <key>Drogen</key>"
                }
            ],
            "level": "TROLL"
        }
    },
    {
        "filename": "0826_Kontoauszug.docx",
        "name": "finfakeCHA",
        "targetname": "Charlotte Specht",
        "level": "FIN",
        "tile": {
            "name": "finfakeCHA",
            "endpos": {
                "x": 1,
                "y": 1
            },
            "match": [],
            "nodes": [
                {
                    "name": "a",
                    "text": "<key>Sintner</key> dealt mit Drogen"
                },
                {
                    "name": "b",
                    "text": "<key> Mitglieder der Bewegung nehmen <key>Drogen</key>"
                }
            ],
            "level": "FIN"
        }
    },
    {
        "filename": "0826_Kontoauszug.docx",
        "name": "listefakeCHA",
        "targetname": "Charlotte Specht",
        "level": "LISTE",
        "tile": {
            "name": "listefakeCHA",
            "endpos": {
                "x": 1,
                "y": 1
            },
            "match": [],
            "nodes": [
                {
                    "name": "a",
                    "text": "<key>Sintner</key> dealt mit Drogen"
                },
                {
                    "name": "b",
                    "text": "<key> Mitglieder der Bewegung nehmen <key>Drogen</key>"
                }
            ],
            "level": "LISTE"
        }
    },
    {
        "filename": "0826_Kontoauszug.docx",
        "name": "trollfakeCON",
        "targetname": "Conny Mühsal",
        "level": "TROLL",
        "tile": {
            "name": "trollfakeCON",
            "endpos": {
                "x": 1,
                "y": 1
            },
            "match": [],
            "nodes": [
                {
                    "name": "a",
                    "text": "Jenny zahlt für <key>sexuelle Dienstleistungen</key>"
                },
                {
                    "name": "b",
                    "text": "Mitglieder der Bewegung <key>prostituieren</key> sich"
                }
            ],
            "level": "TROLL"
        }
    },
    {
        "filename": "0826_Kontoauszug.docx",
        "name": "finfakeCON",
        "targetname": "Conny Mühsal",
        "level": "FIN",
        "tile": {
            "name": "finfakeCON",
            "endpos": {
                "x": 1,
                "y": 1
            },
            "match": [],
            "nodes": [
                {
                    "name": "a",
                    "text": "Jenny zahlt für <key>sexuelle Dienstleistungen</key>"
                },
                {
                    "name": "b",
                    "text": "Mitglieder der Bewegung <key>prostituieren</key> sich"
                }
            ],
            "level": "FIN"
        }
    },
    {
        "filename": "0826_Kontoauszug.docx",
        "name": "listefakeCON",
        "targetname": "Conny Mühsal",
        "level": "LISTE",
        "tile": {
            "name": "listefakeCON",
            "endpos": {
                "x": 1,
                "y": 1
            },
            "match": [],
            "nodes": [
                {
                    "name": "a",
                    "text": "Jenny zahlt für <key>sexuelle Dienstleistungen</key>"
                },
                {
                    "name": "b",
                    "text": "Mitglieder der Bewegung <key>prostituieren</key> sich"
                }
            ],
            "level": "LISTE"
        }
    },
    {
        "filename": "0526_Cornelius_Arne.txt",
        "name": "trollfakeCOR",
        "targetname": "Cornelius Werner",
        "level": "TROLL",
        "tile": {
            "name": "trollfakeCOR",
            "endpos": {
                "x": 1,
                "y": 1
            },
            "match": [],
            "nodes": [
                {
                    "name": "a",
                    "text": "Wunsch Menschen zu <key>foltern</key>"
                },
                {
                    "name": "b",
                    "text": "email über <key>plan zu foltern</key>"
                }
            ],
            "level": "TROLL"
        }
    },
    {
        "filename": "0526_Cornelius_Arne.txt",
        "name": "finfakeCOR",
        "targetname": "Cornelius Werner",
        "level": "FIN",
        "tile": {
            "name": "finfakeCOR",
            "endpos": {
                "x": 1,
                "y": 1
            },
            "match": [],
            "nodes": [
                {
                    "name": "a",
                    "text": "Wunsch Menschen zu <key>foltern</key>"
                },
                {
                    "name": "b",
                    "text": "email über <key>plan zu foltern</key>"
                }
            ],
            "level": "FIN"
        }
    },
    {
        "filename": "0526_Cornelius_Arne.txt",
        "name": "listefakeCOR",
        "targetname": "Cornelius Werner",
        "level": "LISTE",
        "tile": {
            "name": "listefakeCOR",
            "endpos": {
                "x": 1,
                "y": 1
            },
            "match": [],
            "nodes": [
                {
                    "name": "a",
                    "text": "Wunsch Menschen zu <key>foltern</key>"
                },
                {
                    "name": "b",
                    "text": "email über <key>plan zu foltern</key>"
                }
            ],
            "level": "LISTE"
        }
    },
    {
        "filename": "0826_Kontoauszug.docx",
        "name": "trollfakeDEN",
        "targetname": "Denise Schicker",
        "level": "TROLL",
        "tile": {
            "name": "trollfakeDEN",
            "endpos": {
                "x": 1,
                "y": 1
            },
            "match": [],
            "nodes": [
                {
                    "name": "a",
                    "text": "Jenny zahlt für <key>sexuelle Dienstleistungen</key>"
                },
                {
                    "name": "b",
                    "text": "Mitglieder der Bewegung <key>prostituieren</key> sich"
                }
            ],
            "level": "TROLL"
        }
    },
    {
        "filename": "0826_Kontoauszug.docx",
        "name": "finfakeDEN",
        "targetname": "Denise Schicker",
        "level": "FIN",
        "tile": {
            "name": "finfakeDEN",
            "endpos": {
                "x": 1,
                "y": 1
            },
            "match": [],
            "nodes": [
                {
                    "name": "a",
                    "text": "Jenny zahlt für <key>sexuelle Dienstleistungen</key>"
                },
                {
                    "name": "b",
                    "text": "Mitglieder der Bewegung <key>prostituieren</key> sich"
                }
            ],
            "level": "FIN"
        }
    },
    {
        "filename": "0826_Kontoauszug.docx",
        "name": "listefakeDEN",
        "targetname": "Denise Schicker",
        "level": "LISTE",
        "tile": {
            "name": "listefakeDEN",
            "endpos": {
                "x": 1,
                "y": 1
            },
            "match": [],
            "nodes": [
                {
                    "name": "a",
                    "text": "Jenny zahlt für <key>sexuelle Dienstleistungen</key>"
                },
                {
                    "name": "b",
                    "text": "Mitglieder der Bewegung <key>prostituieren</key> sich"
                }
            ],
            "level": "LISTE"
        }
    },
    {
        "filename": "0526_Elena_Thilo.txt",
        "name": "trollfakeELE",
        "targetname": "Elena Manfred",
        "level": "TROLL",
        "tile": {
            "name": "trollfakeELE",
            "endpos": {
                "x": 1,
                "y": 1
            },
            "match": [],
            "nodes": [
                {
                    "name": "a",
                    "text": "Wunsch Menschen zu <key>foltern</key>"
                },
                {
                    "name": "b",
                    "text": "email über <key>plan zu foltern</key>"
                }
            ],
            "level": "TROLL"
        }
    },
    {
        "filename": "0526_Elena_Thilo.txt",
        "name": "finfakeELE",
        "targetname": "Elena Manfred",
        "level": "FIN",
        "tile": {
            "name": "finfakeELE",
            "endpos": {
                "x": 1,
                "y": 1
            },
            "match": [],
            "nodes": [
                {
                    "name": "a",
                    "text": "Wunsch Menschen zu <key>foltern</key>"
                },
                {
                    "name": "b",
                    "text": "email über <key>plan zu foltern</key>"
                }
            ],
            "level": "FIN"
        }
    },
    {
        "filename": "0526_Elena_Thilo.txt",
        "name": "listefakeELE",
        "targetname": "Elena Manfred",
        "level": "LISTE",
        "tile": {
            "name": "listefakeELE",
            "endpos": {
                "x": 1,
                "y": 1
            },
            "match": [],
            "nodes": [
                {
                    "name": "a",
                    "text": "Wunsch Menschen zu <key>foltern</key>"
                },
                {
                    "name": "b",
                    "text": "email über <key>plan zu foltern</key>"
                }
            ],
            "level": "LISTE"
        }
    },
    {
        "filename": "0526_Julian_Natascha.txt",
        "name": "trollfakeJUL",
        "targetname": "Julian Birk",
        "level": "TROLL",
        "tile": {
            "name": "trollfakeJUL",
            "endpos": {
                "x": 1,
                "y": 1
            },
            "match": [],
            "nodes": [
                {
                    "name": "a",
                    "text": "Wunsch Menschen zu <key>foltern</key>"
                },
                {
                    "name": "b",
                    "text": "email über <key>plan zu foltern</key>"
                }
            ],
            "level": "TROLL"
        }
    },
    {
        "filename": "0526_Julian_Natascha.txt",
        "name": "finfakeJUL",
        "targetname": "Julian Birk",
        "level": "FIN",
        "tile": {
            "name": "finfakeJUL",
            "endpos": {
                "x": 1,
                "y": 1
            },
            "match": [],
            "nodes": [
                {
                    "name": "a",
                    "text": "Wunsch Menschen zu <key>foltern</key>"
                },
                {
                    "name": "b",
                    "text": "email über <key>plan zu foltern</key>"
                }
            ],
            "level": "FIN"
        }
    },
    {
        "filename": "0526_Julian_Natascha.txt",
        "name": "listefakeJUL",
        "targetname": "Julian Birk",
        "level": "LISTE",
        "tile": {
            "name": "listefakeJUL",
            "endpos": {
                "x": 1,
                "y": 1
            },
            "match": [],
            "nodes": [
                {
                    "name": "a",
                    "text": "Wunsch Menschen zu <key>foltern</key>"
                },
                {
                    "name": "b",
                    "text": "email über <key>plan zu foltern</key>"
                }
            ],
            "level": "LISTE"
        }
    },
    {
        "filename": "0527_Martin_Simon.txt",
        "name": "trollfakeMAR",
        "targetname": "Marco Knochenwirt",
        "level": "TROLL",
        "tile": {
            "name": "trollfakeMAR",
            "endpos": {
                "x": 1,
                "y": 1
            },
            "match": [],
            "nodes": [
                {
                    "name": "a",
                    "text": "<key>Sintner</key> dealt mit Drogen"
                },
                {
                    "name": "b",
                    "text": "<key> Mitglieder der Bewegung nehmen <key>Drogen</key>"
                }
            ],
            "level": "TROLL"
        }
    },
    {
        "filename": "0527_Martin_Simon.txt",
        "name": "finfakeMAR",
        "targetname": "Marco Knochenwirt",
        "level": "FIN",
        "tile": {
            "name": "finfakeMAR",
            "endpos": {
                "x": 1,
                "y": 1
            },
            "match": [],
            "nodes": [
                {
                    "name": "a",
                    "text": "<key>Sintner</key> dealt mit Drogen"
                },
                {
                    "name": "b",
                    "text": "<key> Mitglieder der Bewegung nehmen <key>Drogen</key>"
                }
            ],
            "level": "FIN"
        }
    },
    {
        "filename": "0527_Martin_Simon.txt",
        "name": "listefakeMAR",
        "targetname": "Marco Knochenwirt",
        "level": "LISTE",
        "tile": {
            "name": "listefakeMAR",
            "endpos": {
                "x": 1,
                "y": 1
            },
            "match": [],
            "nodes": [
                {
                    "name": "a",
                    "text": "<key>Sintner</key> dealt mit Drogen"
                },
                {
                    "name": "b",
                    "text": "<key> Mitglieder der Bewegung nehmen <key>Drogen</key>"
                }
            ],
            "level": "LISTE"
        }
    },
    {
        "filename": "0826_Kontoauszug.docx",
        "name": "trollfakeGUT",
        "targetname": "Martin Gutfried",
        "level": "TROLL",
        "tile": {
            "name": "trollfakeGUT",
            "endpos": {
                "x": 1,
                "y": 1
            },
            "match": [],
            "nodes": [
                {
                    "name": "a",
                    "text": "Mitglieder der Bewegung <key>prostituieren</key> sich"
                },
                {
                    "name": "b",
                    "text": "<key>Drogen</key>ring?"
                }
            ],
            "level": "TROLL"
        }
    },
    {
        "filename": "0826_Kontoauszug.docx",
        "name": "finfakeGUT",
        "targetname": "Martin Gutfried",
        "level": "FIN",
        "tile": {
            "name": "finfakeGUT",
            "endpos": {
                "x": 1,
                "y": 1
            },
            "match": [],
            "nodes": [
                {
                    "name": "a",
                    "text": "Martin plant Leute <key>an die Wand</key> zu stellen"
                },
                {
                    "name": "b",
                    "text": "<key>hasserfüllt</key>e Email"
                }
            ],
            "level": "FIN"
        }
    },
    {
        "filename": "0826_Kontoauszug.docx",
        "name": "listefakeGUT",
        "targetname": "Martin Gutfried",
        "level": "LISTE",
        "tile": {
            "name": "listefakeGUT",
            "endpos": {
                "x": 1,
                "y": 1
            },
            "match": [],
            "nodes": [
                {
                    "name": "a",
                    "text": "Martin plant Leute <key>an die Wand</key> zu stellen"
                },
                {
                    "name": "b",
                    "text": "<key>hasserfüllt</key>e Email"
                }
            ],
            "level": "LISTE"
        }
    },
    {
        "filename": "0527_Marco_Melanie.txt",
        "name": "trollfakeMEL",
        "targetname": "Melanie Niedermeyer",
        "level": "TROLL",
        "tile": {
            "name": "trollfakeMEL",
            "endpos": {
                "x": 1,
                "y": 1
            },
            "match": [],
            "nodes": [
                {
                    "name": "a",
                    "text": "Melanie plant Leute <key>an die Wand</key> zu stellen"
                },
                {
                    "name": "b",
                    "text": "<key>hasserfüllt</key>e Email"
                }
            ],
            "level": "TROLL"
        }
    },
    {
        "filename": "0527_Marco_Melanie.txt",
        "name": "finfakeMEL",
        "targetname": "Melanie Niedermeyer",
        "level": "FIN",
        "tile": {
            "name": "finfakeMEL",
            "endpos": {
                "x": 1,
                "y": 1
            },
            "match": [],
            "nodes": [
                {
                    "name": "a",
                    "text": "Melanie plant Leute <key>an die Wand</key> zu stellen"
                },
                {
                    "name": "b",
                    "text": "<key>hasserfüllt</key>e Email"
                }
            ],
            "level": "FIN"
        }
    },
    {
        "filename": "0527_Marco_Melanie.txt",
        "name": "listefakeMEL",
        "targetname": "Melanie Niedermeyer",
        "level": "LISTE",
        "tile": {
            "name": "listefakeMEL",
            "endpos": {
                "x": 1,
                "y": 1
            },
            "match": [],
            "nodes": [
                {
                    "name": "a",
                    "text": "Melanie plant Leute <key>an die Wand</key> zu stellen"
                },
                {
                    "name": "b",
                    "text": "<key>hasserfüllt</key>e Email"
                }
            ],
            "level": "LISTE"
        }
    },
    {
        "filename": "0826_Kontoauszug.docx",
        "name": "trollfakeNAT",
        "targetname": "Natascha Markwart",
        "level": "TROLL",
        "tile": {
            "name": "trollfakeNAT",
            "endpos": {
                "x": 1,
                "y": 1
            },
            "match": [],
            "nodes": [
                {
                    "name": "a",
                    "text": "Zahlung für <key>Terrorismus</key> erhalten"
                },
                {
                    "name": "b",
                    "text": "<key>Überweisung von Alexander</key> "
                }
            ],
            "level": "TROLL"
        }
    },
    {
        "filename": "0826_Kontoauszug.docx",
        "name": "finfakeNAT",
        "targetname": "Natascha Markwart",
        "level": "FIN",
        "tile": {
            "name": "finfakeNAT",
            "endpos": {
                "x": 1,
                "y": 1
            },
            "match": [],
            "nodes": [
                {
                    "name": "a",
                    "text": "Zahlung für <key>Terrorismus</key> erhalten"
                },
                {
                    "name": "b",
                    "text": "<key>Überweisung von Alexander</key> "
                }
            ],
            "level": "FIN"
        }
    },
    {
        "filename": "0826_Kontoauszug.docx",
        "name": "listefakeNAT",
        "targetname": "Natascha Markwart",
        "level": "LISTE",
        "tile": {
            "name": "listefakeNAT",
            "endpos": {
                "x": 1,
                "y": 1
            },
            "match": [],
            "nodes": [
                {
                    "name": "a",
                    "text": "Zahlung für <key>Terrorismus</key> erhalten"
                },
                {
                    "name": "b",
                    "text": "<key>Überweisung von Alexander</key> "
                }
            ],
            "level": "LISTE"
        }
    },
    {
        "filename": "0826_Kontoauszug.docx",
        "name": "trollfakePHI",
        "targetname": "Philipp Koslowski",
        "level": "TROLL",
        "tile": {
            "name": "trollfakePHI",
            "endpos": {
                "x": 1,
                "y": 1
            },
            "match": [],
            "nodes": [
                {
                    "name": "a",
                    "text": "Jenny zahlt für <key>sexuelle Dienstleistungen</key>"
                },
                {
                    "name": "b",
                    "text": "Mitglieder der Bewegung <key>prostituieren</key> sich"
                }
            ],
            "level": "TROLL"
        }
    },
    {
        "filename": "0826_Kontoauszug.docx",
        "name": "finfakePHI",
        "targetname": "Philipp Koslowski",
        "level": "FIN",
        "tile": {
            "name": "finfakePHI",
            "endpos": {
                "x": 1,
                "y": 1
            },
            "match": [],
            "nodes": [
                {
                    "name": "a",
                    "text": "Jenny zahlt für <key>sexuelle Dienstleistungen</key>"
                },
                {
                    "name": "b",
                    "text": "Mitglieder der Bewegung <key>prostituieren</key> sich"
                }
            ],
            "level": "FIN"
        }
    },
    {
        "filename": "0826_Kontoauszug.docx",
        "name": "listefakePHI",
        "targetname": "Philipp Koslowski",
        "level": "LISTE",
        "tile": {
            "name": "listefakePHI",
            "endpos": {
                "x": 1,
                "y": 1
            },
            "match": [],
            "nodes": [
                {
                    "name": "a",
                    "text": "Jenny zahlt für <key>sexuelle Dienstleistungen</key>"
                },
                {
                    "name": "b",
                    "text": "Mitglieder der Bewegung <key>prostituieren</key> sich"
                }
            ],
            "level": "LISTE"
        }
    },
    {
        "filename": "0826_Kontoauszug.docx",
        "name": "trollfakeSIM",
        "targetname": "Simon Schildner",
        "level": "TROLL",
        "tile": {
            "name": "trollfakeSIM",
            "endpos": {
                "x": 1,
                "y": 1
            },
            "match": [],
            "nodes": [
                {
                    "name": "a",
                    "text": "<key>Sintner</key> dealt mit Drogen"
                },
                {
                    "name": "b",
                    "text": "<key> Mitglieder der Bewegung nehmen <key>Drogen</key>"
                }
            ],
            "level": "TROLL"
        }
    },
    {
        "filename": "0826_Kontoauszug.docx",
        "name": "finfakeSIM",
        "targetname": "Simon Schildner",
        "level": "FIN",
        "tile": {
            "name": "finfakeSIM",
            "endpos": {
                "x": 1,
                "y": 1
            },
            "match": [],
            "nodes": [
                {
                    "name": "a",
                    "text": "<key>Sintner</key> dealt mit Drogen"
                },
                {
                    "name": "b",
                    "text": "<key> Mitglieder der Bewegung nehmen <key>Drogen</key>"
                }
            ],
            "level": "FIN"
        }
    },
    {
        "filename": "0826_Kontoauszug.docx",
        "name": "listefakeSIM",
        "targetname": "Simon Schildner",
        "level": "LISTE",
        "tile": {
            "name": "listefakeSIM",
            "endpos": {
                "x": 1,
                "y": 1
            },
            "match": [],
            "nodes": [
                {
                    "name": "a",
                    "text": "<key>Sintner</key> dealt mit Drogen"
                },
                {
                    "name": "b",
                    "text": "<key> Mitglieder der Bewegung nehmen <key>Drogen</key>"
                }
            ],
            "level": "LISTE"
        }
    },
    {
        "filename": "0826_Kontoauszug.docx",
        "name": "trollfakeTHI",
        "targetname": "Thilo Sand",
        "level": "TROLL",
        "tile": {
            "name": "trollfakeTHI",
            "endpos": {
                "x": 1,
                "y": 1
            },
            "match": [],
            "nodes": [
                {
                    "name": "a",
                    "text": "Zahlung für <key>Terrorismus</key> erhalten"
                },
                {
                    "name": "b",
                    "text": "<key>Überweisung von Alexander</key> "
                }
            ],
            "level": "TROLL"
        }
    },
    {
        "filename": "0826_Kontoauszug.docx",
        "name": "finfakeTHI",
        "targetname": "Thilo Sand",
        "level": "FIN",
        "tile": {
            "name": "finfakeTHI",
            "endpos": {
                "x": 1,
                "y": 1
            },
            "match": [],
            "nodes": [
                {
                    "name": "a",
                    "text": "Zahlung für <key>Terrorismus</key> erhalten"
                },
                {
                    "name": "b",
                    "text": "<key>Überweisung von Alexander</key> "
                }
            ],
            "level": "FIN"
        }
    },
    {
        "filename": "0826_Kontoauszug.docx",
        "name": "listefakeTHI",
        "targetname": "Thilo Sand",
        "level": "LISTE",
        "tile": {
            "name": "listefakeTHI",
            "endpos": {
                "x": 1,
                "y": 1
            },
            "match": [],
            "nodes": [
                {
                    "name": "a",
                    "text": "Zahlung für <key>Terrorismus</key> erhalten"
                },
                {
                    "name": "b",
                    "text": "<key>Überweisung von Alexander</key> "
                }
            ],
            "level": "LISTE"
        }
    }
]
