[
    {
        "name": "Simon Schildner",
        "profilepic": "24_profil.png",
        "profileheader": "24_chronik.png"
    },
    {
        "postcontent": "<br>WINTER MOON – Wolfsrudel Bald zu haben: die neuesten Aufnahmen der BM-Legende. Natürlich auf Kassette!",
        "postpic": "1b.jpg"
    },
    {
        "name": "Charlotte Specht",
        "profilepic": "29_profil.png",
        "profileheader": "29_chronik.png"
    },
    {
        "postcontent": "<br>WINTER MOON – Wolfsrudel Bald zu haben: die neuesten Aufnahmen der BM-Legende. Natürlich auf Kassette!",
        "postpic": "1b.jpg"
    },
    {
        "name": "Cornelius Werner",
        "profilepic": "18_profil.png",
        "profileheader": "18_chronik.png"
    },
    {
        "postcontent": "<br>WINTER MOON – Wolfsrudel Bald zu haben: die neuesten Aufnahmen der BM-Legende. Natürlich auf Kassette!",
        "postpic": "1b.jpg"
    },
    {
        "name": "Julian Birk",
        "profilepic": "20_profil.png",
        "profileheader": "20_chronik.png"
    },
    {
        "postcontent": "<br>WINTER MOON – Wolfsrudel Bald zu haben: die neuesten Aufnahmen der BM-Legende. Natürlich auf Kassette!",
        "postpic": "1b.jpg"
    },
    {
        "name": "Melanie Niedermeyer",
        "profilepic": "12_profil.png",
        "profileheader": "12_chronik.png"
    },
    {
        "postcontent": "<br>WINTER MOON – Wolfsrudel Bald zu haben: die neuesten Aufnahmen der BM-Legende. Natürlich auf Kassette!",
        "postpic": "1b.jpg"
    },
    {
        "name": "Elena Manfred",
        "profilepic": "8_profil.png",
        "profileheader": "8_chronik.png"
    },
    {
        "postcontent": "<br>Meine Fotos von der Sinter-Rede.",
        "postpic": "C_spruch2.png"
    },
    {
        "name": "Conny Mühsal",
        "profilepic": "4_profil.png",
        "profileheader": "4_chronik.png"
    },
    {
        "postcontent": "<br>Meine Fotos von der Sinter-Rede.",
        "postpic": "C_spruch2.png"
    },
    {
        "name": "Philipp Koslowski",
        "profilepic": "26_profil.png",
        "profileheader": "26_chronik.png"
    },
    {
        "postcontent": "<br>Meine Fotos von der Sinter-Rede.",
        "postpic": "C_spruch2.png"
    },
    {
        "name": "Denise Schicker",
        "profilepic": "D_profil.png",
        "profileheader": "D_chronik.png"
    },
    {
        "postcontent": "<br>Meine Fotos von der Sinter-Rede.",
        "postpic": "C_spruch2.png"
    },
    {
        "name": "Martin Gutfried",
        "profilepic": "E_profil.png",
        "profileheader": "E_chronik.png"
    },
    {
        "postcontent": "<br>Meine Fotos von der Sinter-Rede.",
        "postpic": "C_spruch2.png"
    },
    {
        "name": "Natascha Markwart",
        "profilepic": "25_profil.png",
        "profileheader": "25_chronik.png"
    },
    {
        "postcontent": "<br>So friedlich hat die Crowd dem Markus gelauscht. Die Provokation am Stand ging von den anderen aus!",
        "postpic": "13_14_vortrag.png"
    },
    {
        "name": "Thilo Sand",
        "profilepic": "16_profil.png",
        "profileheader": "16_chronik.png"
    },
    {
        "postcontent": "<br>So friedlich hat die Crowd dem Markus gelauscht. Die Provokation am Stand ging von den anderen aus!",
        "postpic": "13_14_vortrag.png"
    },
    {
        "name": "Arne Brauer",
        "profilepic": "28_profil.png",
        "profileheader": "28_chronik.png"
    },
    {
        "postcontent": "<br>So friedlich hat die Crowd dem Markus gelauscht. Die Provokation am Stand ging von den anderen aus!",
        "postpic": "13_14_vortrag.png"
    },
    {
        "name": "Annemarie Schlitzer",
        "profilepic": "19_profil.png",
        "profileheader": "19_chronik.png"
    },
    {
        "postcontent": "<br>So friedlich hat die Crowd dem Markus gelauscht. Die Provokation am Stand ging von den anderen aus!",
        "postpic": "13_14_vortrag.png"
    },
    {
        "name": "Marco Knochenwirt",
        "profilepic": "21_profil.png",
        "profileheader": "21_chronik.png"
    },
    {
        "postcontent": "<br>So friedlich hat die Crowd dem Markus gelauscht. Die Provokation am Stand ging von den anderen aus!",
        "postpic": "13_14_vortrag.png"
    }
]
