{
	"name": "level0",
	"udpPort" : 8041,
	"tcpPort" : 8042,
	"debug" : true,
	"rethink": {"ip":"192.168.0.2", "port":28015},
	"WINDOW" : {"height": 736, "width": 1366, "x":100, "y":34,"frame":false, "resizable":false }
}
