[
  {
    "pid": 1,
    "position": {
      "x": 600,
      "y": 399
    },
    "name": "start",
    "tags": [
      ""
    ],
    "content": "{{audio}}klingeln.wav{{/audio}}  [[Hier ist Hans Hütter vom Feindbild]] [[Hier ist Heinz Hüller vom Feindkontakt]] [[Hier ist Hans Hütter vom Feindkontakt]] [[bugfix]]  klingeln.wav: KLINGELN. Julian Birkensturz: Hallo? Wer ist da?",
    "childrenNames": [
      "[[Hier ist Hans Hütter vom Feindbild]]",
      "[[Hier ist Heinz Hüller vom Feindkontakt]]",
      "[[Hier ist Hans Hütter vom Feindkontakt]]",
      "[[bugfix]]"
    ],
    "audio": [
      "klingeln.wav"
    ]
  },
  {
    "pid": 2,
    "position": {
      "x": 899,
      "y": 527
    },
    "name": "Hier ist Hans Hütter vom Feindbild",
    "tags": [
      ""
    ],
    "content": "{{audio}}fail1.wav{{/audio}} {{fail}}1{{/fail}}  fail1.wav: Julian Birkensturz: Wenn Du schon V-Mann spielen willst, gib dir beim nächsten Mal mehr Mühe bei der Recherche. Tschüss!",
    "childrenNames": [],
    "audio": [
      "fail1.wav"
    ],
    "fail": [
      "1"
    ]
  },
  {
    "pid": 3,
    "position": {
      "x": 898,
      "y": 400
    },
    "name": "Hier ist Heinz Hüller vom Feindkontakt",
    "tags": [
      ""
    ],
    "content": "{{audio}}fail1.wav{{/audio}} {{fail}}1{{/fail}}  fail1.wav: Julian Birkensturz: Wenn Du schon V-Mann spielen willst, gib dir beim nächsten Mal mehr Mühe bei der Recherche. Tschüss!",
    "childrenNames": [],
    "audio": [
      "fail1.wav"
    ],
    "fail": [
      "1"
    ]
  },
  {
    "pid": 4,
    "position": {
      "x": 601,
      "y": 600
    },
    "name": "Hier ist Hans Hütter vom Feindkontakt",
    "tags": [
      ""
    ],
    "content": "{{audio}}birkensturz1.wav{{/audio}}  birkensturz1.wav: Birkensturz: Ich habe schon auf Ihren Anruf gewartet. {{wordcloud}}{{time}}2.0{{/time}}{{id}ID16{{/id}}{{word}}Distribution{{/word}}{{/wordcloud}}Ich habe die Magazine wie verabredet verschickt. Ist damit meine Loyalität endlich bewiesen?  [[Ich denke wir können Ihnen vertrauen. Können Sie uns vielleicht einen Kontakt zu Martin Gutfreund herstellen? Es gibt eine dringliche Angelegenheit, die wir mit ihm besprechen müssen.]] ",
    "childrenNames": [
      "[[Ich denke wir können Ihnen vertrauen. Können Sie uns vielleicht einen Kontakt zu Martin Gutfreund herstellen? Es gibt eine dringliche Angelegenheit, die wir mit ihm besprechen müssen.]]"
    ],
    "audio": [
      "birkensturz1.wav"
    ],
    "wordcloud": [
      "{{time}}2.0{{/time}}{{id}ID16{{/id}}{{word}}Distribution{{/word}}"
    ]
  },
  {
    "pid": 5,
    "position": {
      "x": 402,
      "y": 400
    },
    "name": "bugfix",
    "tags": [
      ""
    ],
    "content": "[[start]]",
    "childrenNames": [
      "[[start]]"
    ]
  },
  {
    "pid": 6,
    "position": {
      "x": 603,
      "y": 747
    },
    "name": "Ich denke wir können Ihnen vertrauen. Können Sie uns vielleicht einen Kontakt zu Martin Gutfreund herstellen? Es gibt eine dringliche Angelegenheit, die wir mit ihm besprechen müssen.",
    "tags": [
      ""
    ],
    "content": "{{audio}}birkensturz2.wav{{/audio}}  birkensturz2.wav: {{wordcloud}}{{time}}2.0{{/time}}{{id}ID17{{/id}}{{word}}Vetter{{/word}}{{/wordcloud}}Das ist mein Vetter. Wir haben so unsere Konflikte, aber einen Kontakt kann ich herstellen. Aber zunächst mal das geschäftliche: Wie stellen sie sich die Zusammenarbeit zwischen meinem Verlag und ihrer Zeitschrift vor?  [[Wir wollen unsere Leserschaft mit der von EDITION WANDERLUST verbinden]] [[Wir wollen unsere Leserschaft mit der von EDITION WUNDERWAFFE verbinden]] [[Wir wollen unsere Leserschaft mit der von EDITION WEHRHAFT verbinden]]",
    "childrenNames": [
      "[[Wir wollen unsere Leserschaft mit der von EDITION WANDERLUST verbinden]]",
      "[[Wir wollen unsere Leserschaft mit der von EDITION WUNDERWAFFE verbinden]]",
      "[[Wir wollen unsere Leserschaft mit der von EDITION WEHRHAFT verbinden]]"
    ],
    "audio": [
      "birkensturz2.wav"
    ],
    "wordcloud": [
      "{{time}}2.0{{/time}}{{id}ID17{{/id}}{{word}}Vetter{{/word}}"
    ]
  },
  {
    "pid": 7,
    "position": {
      "x": 877,
      "y": 710
    },
    "name": "Wir wollen unsere Leserschaft mit der von EDITION WANDERLUST verbinden",
    "tags": [
      ""
    ],
    "content": "{{audio}}fail2.wav{{/audio}} {{fail}}1{{/fail}}  fail1.wav: Julian Birkensturz: Sie scheinen ja noch nicht mal zu wissen, wie der Verlag heißt. Suchen Sie sich einen anderen blöden!",
    "childrenNames": [],
    "audio": [
      "fail2.wav"
    ],
    "fail": [
      "1"
    ]
  },
  {
    "pid": 8,
    "position": {
      "x": 601,
      "y": 933
    },
    "name": "Wir wollen unsere Leserschaft mit der von EDITION WUNDERWAFFE verbinden",
    "tags": [
      ""
    ],
    "content": "{{audio}}birkensturz3.wav{{/audio}}  birkensturz2.wav: Das würde mich auch interessieren. Wir müssen jedoch vorsichtig vorgehen, wegen der legalen Implikationen. Ich habe gerade einen neuen Mitarbeiter angeworben, mit dem werde ich mich besprechen und dann auf sie zurückkommen.  [[nach Martin Gutfreund fragen]]",
    "childrenNames": [
      "[[nach Martin Gutfreund fragen]]"
    ],
    "audio": [
      "birkensturz3.wav"
    ]
  },
  {
    "pid": 9,
    "position": {
      "x": 900,
      "y": 831
    },
    "name": "Wir wollen unsere Leserschaft mit der von EDITION WEHRHAFT verbinden",
    "tags": [
      ""
    ],
    "content": "{{audio}}fail2.wav{{/audio}} {{fail}}1{{/fail}}  fail1.wav: Julian Birkensturz: Sie scheinen ja noch nicht mal zu wissen, wie der Verlag heißt. Suchen Sie sich einen anderen blöden!",
    "childrenNames": [],
    "audio": [
      "fail2.wav"
    ],
    "fail": [
      "1"
    ]
  },
  {
    "pid": 10,
    "position": {
      "x": 601,
      "y": 1083
    },
    "name": "nach Martin Gutfreund fragen",
    "tags": [
      ""
    ],
    "content": "{{audio}}birkensturz3.wav{{/audio}}  birkensturz3.wav: Achja richtig. Ich schicke Ihnen die email-adresse. Ich muss Sie allerdings davor warnen, Martin zu vertrauen. Wenn Sie oder seine Kameraden über den Mann wüssten, was ich wüsste, würde ihm seine Position ganz schnell um die Ohren fliegen. {{wordcloud}}{{time}}2.0{{/time}}{{id}ID18{{/id}}{{word}}Informationen{{/word}}{{/wordcloud}} Ich melde mich wieder. LEGT AUF.",
    "childrenNames": [],
    "audio": [
      "birkensturz3.wav"
    ],
    "wordcloud": [
      "{{time}}2.0{{/time}}{{id}ID18{{/id}}{{word}}Informationen{{/word}}"
    ]
  }
]
