[
    {
      "text": "{{msg}}{{sender}}system{{/sender}} sende JuBi eine nachricht! {{/msg}}\n\n[[nach ninja-tshirt fragen]]\n[[nach exitus europa fragen]]\n[[nach bezugsquelle für \"feindkontakt\" fragen]]\n[[bugfix]]",
      "links": [
        {
          "name": "nach ninja-tshirt fragen",
          "link": "nach ninja-tshirt fragen",
          "pid": "2"
        },
        {
          "name": "nach exitus europa fragen",
          "link": "nach exitus europa fragen",
          "pid": "7"
        },
        {
          "name": "nach bezugsquelle für \"feindkontakt\" fragen",
          "link": "nach bezugsquelle für \"feindkontakt\" fragen",
          "pid": "4"
        },
        {
          "name": "bugfix",
          "link": "bugfix",
          "pid": "15"
        }
      ],
      "name": "start",
      "pid": "1",
      "position": {
        "x": "490",
        "y": "20"
      }
    },
    {
      "text": "{{msg}}{{sender}}send{{/sender}}Hallo Herr Birkensturz,<br>mir gefällt das Ninja-Design auf ihrem YODO-Shirt. Können sie mir ein bisschen was über die Bedeutung verraten? MfG{{/msg}}\n{{msg}}{{sender}}recieve{{/sender}}Hallo, also zunächst mal handelt es sich nicht um einen Ninja, sondern um einen Samurai, ein wichtiger Unterschied in der <div class=\"mover\" trigger=\"ID6\">japanischen Kultur.</div>Das Bild zeigt Yukio Mishima.{{/msg}}\n{{msg}}{{sender}}send{{/sender}}Ah Danke siehst Du so gut kenne ich mich noch nicht aus. Ist Mishima ein echter Samurai oder kommt der aus einem Film oder so?{{/msg}}\n{{msg}}{{sender}}recieve{{/sender}}Mishima ist ein japanischen Dichter, Filmmacher, aktiver Nationalist und eben Samurai gewesen. Ein echter Mann und ein großes Vorbild.{{/msg}}\n\n[[nach schriftstellerischen werken fragen]]\n[[nach filmischen werken fragen]]\n[[nach nationalistischen tätigkeiten fragen]]",
      "links": [
        {
          "name": "nach schriftstellerischen werken fragen",
          "link": "nach schriftstellerischen werken fragen",
          "pid": "5"
        },
        {
          "name": "nach filmischen werken fragen",
          "link": "nach filmischen werken fragen",
          "pid": "6"
        },
        {
          "name": "nach nationalistischen tätigkeiten fragen",
          "link": "nach nationalistischen tätigkeiten fragen",
          "pid": "3"
        }
      ],
      "name": "nach ninja-tshirt fragen",
      "pid": "2",
      "position": {
        "x": "201",
        "y": "189"
      }
    },
    {
      "text": "{{msg}}{{sender}}send{{/sender}}Erzähl mir von seinem Aktionismus{{/msg}}\n{{msg}}{{sender}}recieve{{/sender}}Er hat zum Beispiel die rechte Studentenbewegung Tatenokai gegründet und mit ihr an der Wiederherstellung der kaiserlichen Ordnung gearbeitet.{{/msg}}\n{{msg}}{{sender}}send{{/sender}}Ziemlich mutig.{{/msg}}\n{{msg}}{{sender}}recieve{{/sender}}Zu solcher Entschlossenheit wären die verweichlichten Studenten heute doch gar nicht mehr fähig, das kannst Du mir glauben.{{/msg}}\n\n[[nach schriftstellerischen werken fragen]]\n[[nach filmischen werken fragen]]\n[[nach studentischen organisationen fragen]]",
      "links": [
        {
          "name": "nach schriftstellerischen werken fragen",
          "link": "nach schriftstellerischen werken fragen",
          "pid": "5"
        },
        {
          "name": "nach filmischen werken fragen",
          "link": "nach filmischen werken fragen",
          "pid": "6"
        },
        {
          "name": "nach studentischen organisationen fragen",
          "link": "nach studentischen organisationen fragen",
          "pid": "13"
        }
      ],
      "name": "nach nationalistischen tätigkeiten fragen",
      "pid": "3",
      "position": {
        "x": "451",
        "y": "363"
      }
    },
    {
      "text": "{{msg}}{{sender}}send{{/sender}}Ich suche nach eine Bezugsquelle für die Zeitschrift \"Feindkontakt\", kann aber nichts finden.{{/msg}}\n{{msg}}{{sender}}recieve{{/sender}}Das hat ganz einfach damit zu tun, dass die Zeitschrift vom Verfassungsschutz Publikationsverbot hat. Ich halte mich natürlich an die Gesetze.{{/msg}}\n\n[[insistieren]]\n[[nach etwas anderem fragen]]",
      "links": [
        {
          "name": "insistieren",
          "link": "insistieren",
          "pid": "16"
        },
        {
          "name": "nach etwas anderem fragen",
          "link": "nach etwas anderem fragen",
          "pid": "14"
        }
      ],
      "name": "nach bezugsquelle für \"feindkontakt\" fragen",
      "pid": "4",
      "position": {
        "x": "1075",
        "y": "323"
      }
    },
    {
      "text": "{{msg}}{{sender}}send{{/sender}}Erzähl mir etwas über seine Bücher.{{/msg}}\n{{msg}}{{sender}}recieve{{/sender}}Die interessantesten Werke sind \"Geständnis einer Maske\" und \"Sun and Steel\", wenn Du mich fragst.{{/msg}}\n{{msg}}{{sender}}send{{/sender}}Erzähl mir mehr davon.{{/msg}}\n{{msg}}{{sender}}recieve{{/sender}}In \"Geständnis eienr Maske\" geht es um die verborgene Homosexualität Mishimas in der Japanischen Gesellschaft. \"Sun and Steel\" beschreibt die Verwandlung seines Körpers zu einem Kriegerkörper mithilfe von Training und Selbstdisziplin.{{/msg}}\n\n[[konflikt nationalismus und homosexualität ansprechen]]\n[[homosexualität und körperkult ansprechen]]\n[[nach etwas anderem fragen]]",
      "links": [
        {
          "name": "konflikt nationalismus und homosexualität ansprechen",
          "link": "konflikt nationalismus und homosexualität ansprechen",
          "pid": "17"
        },
        {
          "name": "homosexualität und körperkult ansprechen",
          "link": "homosexualität und körperkult ansprechen",
          "pid": "18"
        },
        {
          "name": "nach etwas anderem fragen",
          "link": "nach etwas anderem fragen",
          "pid": "14"
        }
      ],
      "name": "nach schriftstellerischen werken fragen",
      "pid": "5",
      "position": {
        "x": "90",
        "y": "345"
      }
    },
    {
      "text": "{{msg}}{{sender}}send{{/sender}}Erzähl mir etwas von seinen filmischen Werken.{{/msg}}\n{{msg}}{{sender}}recieve{{/sender}}Er hat viel im Stil des No-Theater gearbeitet. Ich kann den Film Yūkoku empfehlen. Es geht um einen jungen Offizier, der nach einem gescheiterten Militärputsch den rituellen Selbstmord der Samurai begeht – Seppuku.{{/msg}}\n{{msg}}{{sender}}send{{/sender}}Interessant.{{/msg}}\n{{msg}}{{sender}}recieve{{/sender}}Das faszinierende ist die Tatsache, das Mishima später selbst so gestorben ist: Er hat einen Militärputsch geplant und nach dessen Fehlschlag Seppuku begangen. Was für eine Willenskraft! Sich für die eigenen Überzeugungen ein Schwert in den Bauch zu rammen. <div class=\"mover\" trigger=\"ID8\">Ich finde einen solchen Tod beneidenswert.</div>{{/msg}}\n\n[[nach etwas anderem fragen]]",
      "links": [
        {
          "name": "nach etwas anderem fragen",
          "link": "nach etwas anderem fragen",
          "pid": "14"
        }
      ],
      "name": "nach filmischen werken fragen",
      "pid": "6",
      "position": {
        "x": "317",
        "y": "360"
      }
    },
    {
      "text": "{{msg}}{{sender}}send{{/sender}}Ich interessiere mich für eine Kopie von Exitus Europa. Es gibt kaum noch Shops, die das Buch verkaufen.{{/msg}}\n{{msg}}{{sender}}recieve{{/sender}}Wir sind der EINZIGE Shop, bei dem das Buch noch erhältlich ist, nachdem die Presse so überaus \"objektiv\" darüber berichtet hat.{{/msg}}\n{{msg}}{{sender}}send{{/sender}}Wo bekommt ihr eure Kopien her?{{/msg}}\n{{msg}}{{sender}}recieve{{/sender}}Die alteingesessenen Verlage ziehen ja alle den Schwanz ein, sobald ein bisschen Kritik kommt. Deswegen haben wir unseren eigenen Verlag <div class=\"mover\" trigger=\"ID11\">EDITION WUNDERWAFFE gegründet</div> und gleich als erstes das Buch wieder aufgelegt.{{/msg}}\n\n[[nach persönlichem bezug zur publizistik fragen]]\n[[nach dem namen des verlages fragen]]\n[[nach der anschrift des verlages fragen]]\n[[nach bezugsquelle für \"feindkontakt\" fragen]]\n",
      "links": [
        {
          "name": "nach persönlichem bezug zur publizistik fragen",
          "link": "nach persönlichem bezug zur publizistik fragen",
          "pid": "8"
        },
        {
          "name": "nach dem namen des verlages fragen",
          "link": "nach dem namen des verlages fragen",
          "pid": "9"
        },
        {
          "name": "nach der anschrift des verlages fragen",
          "link": "nach der anschrift des verlages fragen",
          "pid": "22"
        },
        {
          "name": "nach bezugsquelle für \"feindkontakt\" fragen",
          "link": "nach bezugsquelle für \"feindkontakt\" fragen",
          "pid": "4"
        }
      ],
      "name": "nach exitus europa fragen",
      "pid": "7",
      "position": {
        "x": "733",
        "y": "256"
      }
    },
    {
      "text": "{{msg}}{{sender}}send{{/sender}}Respekt! Wie kommt man dazu so einen Verlag zu gründen?{{/msg}}\n{{msg}}{{sender}}recieve{{/sender}}Ich studiere <div class=\"mover\" trigger=\"ID8\">Literatur- und Geschichtswissenschaften</div> in Göttingen. Da kann man am eigenen Leib erleben, wie jede nationale Haltung systematisch aus Diskussion und Forschung ausgeschlossen wird.{{/msg}}\n{{msg}}{{sender}}send{{/sender}}Klar.{{/msg}}\n{{msg}}{{sender}}recieve{{/sender}}Nach ein paar Semestern links-ideologischer Bestrahlung wurde mir klar: Wenn ich will, dass sich etwas ändert, muss ich es selbst in die Hand nehmen.{{/msg}}\n\n[[nach weiteren Publikationen fragen]]\n[[ähnliche uni-karriere behaupten]]\n[[nach etwas anderem fragen]]",
      "links": [
        {
          "name": "nach weiteren Publikationen fragen",
          "link": "nach weiteren Publikationen fragen",
          "pid": "10"
        },
        {
          "name": "ähnliche uni-karriere behaupten",
          "link": "ähnliche uni-karriere behaupten",
          "pid": "11"
        },
        {
          "name": "nach etwas anderem fragen",
          "link": "nach etwas anderem fragen",
          "pid": "14"
        }
      ],
      "name": "nach persönlichem bezug zur publizistik fragen",
      "pid": "8",
      "position": {
        "x": "655",
        "y": "403"
      }
    },
    {
      "text": "{{msg}}{{sender}}send{{/sender}}Was hat es mit dem Namen EDITION WUNDERWAFFE auf sich?{{/msg}}\n{{msg}}{{sender}}recieve{{/sender}}Ich war bei der Namensfindung vom U-Boot-Krieg inspiriert. Der Gedanke dahinter ist: Nationalistisches Denken ist in den Jahrzeiten seit 1945 in die Obskurität gedrängt worden.{{/msg}}\n{{msg}}{{sender}}send{{/sender}}Sozusagen unter die Wasseroberfläche.{{/msg}}\n{{msg}}{{sender}}recieve{{/sender}}Ganz genau. Heute sind wir in der Unterzahl, also müssen wir kämpfen wie ein U-Boot: Unsichtbar, bis zu dem Moment an dem wir wirkungsvoll zuschlagen.{{/msg}}\n\n[[nach weiteren Publikationen fragen]]\n",
      "links": [
        {
          "name": "nach weiteren Publikationen fragen",
          "link": "nach weiteren Publikationen fragen",
          "pid": "10"
        }
      ],
      "name": "nach dem namen des verlages fragen",
      "pid": "9",
      "position": {
        "x": "794",
        "y": "418"
      }
    },
    {
      "text": "{{msg}}{{sender}}send{{/sender}}Plant ihr noch weitere Publikationen?{{/msg}}\n{{msg}}{{sender}}recieve{{/sender}}Der Verlag ist noch jung und die organisatorischen Strukturen wachsen noch. Wir planen aber eine neue Herausgabe von einigen Münchhausen-Bänden. Auch im Gespräch ist eine Spengler–Analyse von <div class=\"mover\" trigger=\"ID15\">August Kneiper</div>.{{/msg}}\n\n[[nach bezugsquelle für \"feindkontakt\" fragen]]\n[[nach etwas anderem fragen]]",
      "links": [
        {
          "name": "nach bezugsquelle für \"feindkontakt\" fragen",
          "link": "nach bezugsquelle für \"feindkontakt\" fragen",
          "pid": "4"
        },
        {
          "name": "nach etwas anderem fragen",
          "link": "nach etwas anderem fragen",
          "pid": "14"
        }
      ],
      "name": "nach weiteren Publikationen fragen",
      "pid": "10",
      "position": {
        "x": "773",
        "y": "585"
      }
    },
    {
      "text": "{{msg}}{{sender}}send{{/sender}}Ich habe während meines Studiums in Konstanz ähnliche Erfahrungen gemacht. Die Lehrenden sind da ideologisch alle auf einer Linie.{{/msg}}\n{{msg}}{{sender}}recieve{{/sender}}Meinst Du hier gibts mal einen, der sich nicht damit zufrieden gibt, in postmodernen Allgemeinplätzen rumzurühren? Die anderen Studenten finden das natürlich toll.{{/msg}}\n{{msg}}{{sender}}send{{/sender}}Na klar, alle sind sich immer schön einig. Besonders in den Geisteswissenschaften.{{/msg}}\n{{msg}}{{sender}}recieve{{/sender}}Da steht man als kritischer Mensch ganz schön alleine da, das kannst du mir glauben.{{/msg}}\n\n[[nach sozialsituation fragen]]\n[[nach studentischen organisationen fragen]]",
      "links": [
        {
          "name": "nach sozialsituation fragen",
          "link": "nach sozialsituation fragen",
          "pid": "12"
        },
        {
          "name": "nach studentischen organisationen fragen",
          "link": "nach studentischen organisationen fragen",
          "pid": "13"
        }
      ],
      "name": "ähnliche uni-karriere behaupten",
      "pid": "11",
      "position": {
        "x": "604",
        "y": "564"
      }
    },
    {
      "text": "{{msg}}{{sender}}send{{/sender}}Nationalismus macht einsam, so ist es heute eben.{{/msg}}\n{{msg}}{{sender}}recieve{{/sender}}So ist es eben. <div class=\"mover\" trigger=\"ID7\">Ich habe mich daran gewöhnt.</div>{{/msg}}\n\n[[psychologische bedürftigkeit vorspielen]]\n[[nach etwas anderem fragen]]",
      "links": [
        {
          "name": "psychologische bedürftigkeit vorspielen",
          "link": "psychologische bedürftigkeit vorspielen",
          "pid": "20"
        },
        {
          "name": "nach etwas anderem fragen",
          "link": "nach etwas anderem fragen",
          "pid": "14"
        }
      ],
      "name": "nach sozialsituation fragen",
      "pid": "12",
      "position": {
        "x": "587",
        "y": "709"
      }
    },
    {
      "text": "{{msg}}{{sender}}send{{/sender}}Was meinst Du mit \"Das kannst Du mir glauben\"? Hast Du mal versucht, etwas zu gründen?{{/msg}}\n{{msg}}{{sender}}recieve{{/sender}}<div class=\"mover\" trigger=\"ID13\">Ich bin Teil von einem kleinen nationalistischen Arbeitskreis von Studenten.</div> Wir treffen uns monatlich in einem Work-Retreat in Thüringen. Wir haben aber unsere Mühe, neue Mitglieder zu finden.{{/msg}}\n{{msg}}{{sender}}send{{/sender}}Was sind eure Ziele?{{/msg}}\n{{msg}}{{sender}}recieve{{/sender}}Wir lesen gemeinsam Texte aus der nationalistischen Theorie und diskutieren Politik. Wir versuchen die deutsche Publikationslandschaft zu überblicken und stellen Kontakt zwischen Gleichgesinnten her.{{/msg}}\n\n[[nach etwas anderem fragen]]",
      "links": [
        {
          "name": "nach etwas anderem fragen",
          "link": "nach etwas anderem fragen",
          "pid": "14"
        }
      ],
      "name": "nach studentischen organisationen fragen",
      "pid": "13",
      "position": {
        "x": "434",
        "y": "602"
      }
    },
    {
      "text": "{{msg}}{{sender}}send{{/sender}}Lass mich dich noch was anderes fragen{{/msg}}\n\n[[nach ninja-tshirt fragen]]\n[[nach exitus europa fragen]]\n[[nach bezugsquelle für \"feindkontakt\" fragen]]",
      "links": [
        {
          "name": "nach ninja-tshirt fragen",
          "link": "nach ninja-tshirt fragen",
          "pid": "2"
        },
        {
          "name": "nach exitus europa fragen",
          "link": "nach exitus europa fragen",
          "pid": "7"
        },
        {
          "name": "nach bezugsquelle für \"feindkontakt\" fragen",
          "link": "nach bezugsquelle für \"feindkontakt\" fragen",
          "pid": "4"
        }
      ],
      "name": "nach etwas anderem fragen",
      "pid": "14",
      "position": {
        "x": "701",
        "y": "51"
      }
    },
    {
      "text": "[[start]]",
      "links": [
        {
          "name": "start",
          "link": "start",
          "pid": "1"
        }
      ],
      "name": "bugfix",
      "pid": "15",
      "position": {
        "x": "291",
        "y": "22"
      }
    },
    {
      "text": "{{msg}}{{sender}}send{{/sender}}Ach komm schon, ich merke doch, dass Du da etwas weißt. Du bist doch einer von uns. Ich bin vertrauenswürdig{{/msg}}\n{{msg}}{{sender}}recieve{{/sender}}Ich wäre ja schön blöd, wenn ich jedem hergelaufenen Glauben schenken würde. Ich kann dir nicht helfen.{{/msg}}\n\n[[nach etwas anderem fragen]]\n",
      "links": [
        {
          "name": "nach etwas anderem fragen",
          "link": "nach etwas anderem fragen",
          "pid": "14"
        }
      ],
      "name": "insistieren",
      "pid": "16",
      "position": {
        "x": "1240",
        "y": "307"
      }
    },
    {
      "text": "{{msg}}{{sender}}send{{/sender}}Homosexualität und Nationalismus gehen nicht häufig zusammen.{{/msg}}\n{{msg}}{{sender}}recieve{{/sender}}Heutzutage nicht mehr. Heute assoziiert man Schwulsein mit linker Politik.{{/msg}}\n{{msg}}{{sender}}send{{/sender}}Das müsste ja nicht so sein.{{/msg}}\n{{msg}}{{sender}}recieve{{/sender}}Das stimmt, ändert aber nichts daran, dass man als rechtpolitischer schwuler Mann ganz schön einsam sein kann.{{/msg}}\n\n[[auf eigene erfahrung ansprechen]]\n[[nach etwas anderem fragen]]",
      "links": [
        {
          "name": "auf eigene erfahrung ansprechen",
          "link": "auf eigene erfahrung ansprechen",
          "pid": "19"
        },
        {
          "name": "nach etwas anderem fragen",
          "link": "nach etwas anderem fragen",
          "pid": "14"
        }
      ],
      "name": "konflikt nationalismus und homosexualität ansprechen",
      "pid": "17",
      "position": {
        "x": "32",
        "y": "551"
      }
    },
    {
      "text": "{{msg}}{{sender}}send{{/sender}}Die Verbindung von Homosexualität und aggressivem Körperkult ist interessant – und vielleicht auch etwas widersprüchlich?{{/msg}}\n{{msg}}{{sender}}recieve{{/sender}}Das sagen viele, aber ich bin anderer Meinung. <div class=\"mover\" trigger=\"ID14\">Als ich noch in Berlin gelebt habe, habe ich im EISEN trainiert.</div> Ein reiner Männerclub und trotzdem habe ich miterlebt, wie dort Mitglieder rausgeworfen wurden, wenn sie Schwulsein auch nur erwähnt haben. Für sowas habe ich kein Verständnis. Ich bin dann bald da ausgestiegen.{{/msg}}\n\n[[konflikt nationalismus und homosexualität ansprechen]]\n[[nach etwas anderem fragen]]",
      "links": [
        {
          "name": "konflikt nationalismus und homosexualität ansprechen",
          "link": "konflikt nationalismus und homosexualität ansprechen",
          "pid": "17"
        },
        {
          "name": "nach etwas anderem fragen",
          "link": "nach etwas anderem fragen",
          "pid": "14"
        }
      ],
      "name": "homosexualität und körperkult ansprechen",
      "pid": "18",
      "position": {
        "x": "189",
        "y": "516"
      }
    },
    {
      "text": "{{msg}}{{sender}}send{{/sender}}Homosexualität und Nationalismus gehen nicht häufig zusammen.{{/msg}}\n{{msg}}{{sender}}recieve{{/sender}}Liest sich so was? <div class=\"mover\" trigger=\"ID10\">Ich werde nicht das Gegenteil behaupten.</div> Lass uns über etwas anderes reden.{{/msg}}\n\n[[nach sozialsituation fragen]]\n[[nach etwas anderem fragen]]\n",
      "links": [
        {
          "name": "nach sozialsituation fragen",
          "link": "nach sozialsituation fragen",
          "pid": "12"
        },
        {
          "name": "nach etwas anderem fragen",
          "link": "nach etwas anderem fragen",
          "pid": "14"
        }
      ],
      "name": "auf eigene erfahrung ansprechen",
      "pid": "19",
      "position": {
        "x": "191",
        "y": "706"
      }
    },
    {
      "text": "{{msg}}{{sender}}send{{/sender}}Ich könnte da etwas Hilfe gebrauchen. Ich suche Anschluss an Gleichgesinnte. Ich bin schon lange ziemlich isoliert gewesen. Ich brauche dringend eine Umgebung in der ich meine Energien kanalisieren kann.{{/msg}}\n{{msg}}{{sender}}recieve{{/sender}}Hm.{{/msg}}\n{{msg}}{{sender}}send{{/sender}}Ich weiß nicht, was ich noch sagen soll. Vielleicht kann ich mich irgendwie in deinem Verlag nützlich machen?{{/msg}}\n{{msg}}{{sender}}recieve{{/sender}}Nagut. Ich sag dir was: Ich arbeite gerade an einer Zusammenarbeit mit einem Magazin. Wenn Du da mitarbeiten willst, brauche ich aber ein paar Garantien, das ganze muss nämlich unter dem Radar ablaufen, wenn Du verstehst, was ich meine.{{/msg}}\n\n[[interesse an \"feindkontakt\" offenbaren]]\n[[nach etwas anderem fragen]]",
      "links": [
        {
          "name": "interesse an \"feindkontakt\" offenbaren",
          "link": "interesse an \"feindkontakt\" offenbaren",
          "pid": "21"
        },
        {
          "name": "nach etwas anderem fragen",
          "link": "nach etwas anderem fragen",
          "pid": "14"
        }
      ],
      "name": "psychologische bedürftigkeit vorspielen",
      "pid": "20",
      "position": {
        "x": "764",
        "y": "725"
      }
    },
    {
      "text": "{{msg}}{{sender}}send{{/sender}}Du sprichst nicht etwa von \"Feindkontakt\"? Ich suche schon lange nach einem direkten Kontakt zu der Redaktion, aber die sind verständlicherweise vorsichtig.{{/msg}}\n{{msg}}{{sender}}recieve{{/sender}}Na schön – Du hast es erfasst. Ich habe auch erst vor kurzem einen Kontakt herstellen können. <div class=\"mover\" trigger=\"ID12\">Ich habe in den nächsten Tagen ein Gespräch mit einem Kontakt, der sich Hans Hütter nennt.</div> ich glaube aber, das ist ein Deckname.{{/msg}}\n{{msg}}{{sender}}send{{/sender}}Worum soll es da gehen?{{/msg}}\n{{msg}}{{sender}}recieve{{/sender}}Ich glaube, dass die Interesse an meiner Arbeit mit EDITION WUNDERWAFFE haben. Vielleicht suchen sie nach einem legalen Arm ihrer Publikationspraxis. Ich jedenfalls interessiere mich für ihre Kontakte in der nationalistischen Untergrund.{{/msg}}\n{{msg}}{{sender}}send{{/sender}}Wie kann ich dir helfen?{{/msg}}\n{{msg}}{{sender}}recieve{{/sender}}Ruf mich Ende nächster Woche an, dann besprechen wir alles weitere. Meine Telefonnummer lautet <div class=\"mover\" trigger=\"ID5\">0129 3412810</div>{{/msg}}",
      "name": "interesse an \"feindkontakt\" offenbaren",
      "pid": "21",
      "position": {
        "x": "901",
        "y": "700"
      }
    },
    {
      "text": "{{msg}}{{sender}}send{{/sender}}Kannst Du mir die Anschrift des Verlages sagen?{{/msg}}\n{{msg}}{{sender}}recieve{{/sender}}Selbstverständlich. Unsere Adresse lautet: <div class=\"mover\" trigger=\"ID1\">Julian Birkensturz</div>, <<div class=\"mover\" trigger=\"ID2\">Goethestraße 27 in Göttingen</div>. {{/msg}}\n\n[[nach persönlichem bezug zur publizistik fragen]]\n[[nach dem namen des verlages fragen]]\n[[nach etwas anderem fragen]]",
      "links": [
        {
          "name": "nach persönlichem bezug zur publizistik fragen",
          "link": "nach persönlichem bezug zur publizistik fragen",
          "pid": "8"
        },
        {
          "name": "nach dem namen des verlages fragen",
          "link": "nach dem namen des verlages fragen",
          "pid": "9"
        },
        {
          "name": "nach etwas anderem fragen",
          "link": "nach etwas anderem fragen",
          "pid": "14"
        }
      ],
      "name": "nach der anschrift des verlages fragen",
      "pid": "22",
      "position": {
        "x": "946",
        "y": "416"
      }
    }
  ]
